<?xml version="1.0" encoding="UTF-8" standalone="no"?>
<!-- ////////////////////////////////////////////////////////////////////////
     // @license
     // This demo file is part of yFiles for HTML 2.1.0.6.
     // Copyright (c) 2000-2019 by yWorks GmbH, Vor dem Kreuzberg 28,
     // 72070 Tuebingen, Germany. All rights reserved.
     //
     // yFiles demo files exhibit yFiles for HTML functionalities. Any redistribution
     // of demo files in source code or binary form, with or without
     // modification, is not permitted.
     //
     // Owners of a valid software license for a yFiles for HTML version that this
     // demo is shipped with are allowed to use the demo source code as basis
     // for their own yFiles for HTML powered applications. Use of such programs is
     // governed by the rights and conditions as set out in the yFiles for HTML
     // license agreement.
     //
     // THIS SOFTWARE IS PROVIDED ''AS IS'' AND ANY EXPRESS OR IMPLIED
     // WARRANTIES, INCLUDING, BUT NOT LIMITED TO, THE IMPLIED WARRANTIES OF
     // MERCHANTABILITY AND FITNESS FOR A PARTICULAR PURPOSE ARE DISCLAIMED. IN
     // NO EVENT SHALL yWorks BE LIABLE FOR ANY DIRECT, INDIRECT, INCIDENTAL,
     // SPECIAL, EXEMPLARY, OR CONSEQUENTIAL DAMAGES (INCLUDING, BUT NOT LIMITED
     // TO, PROCUREMENT OF SUBSTITUTE GOODS OR SERVICES; LOSS OF USE, DATA, OR
     // PROFITS; OR BUSINESS INTERRUPTION) HOWEVER CAUSED AND ON ANY THEORY OF
     // LIABILITY, WHETHER IN CONTRACT, STRICT LIABILITY, OR TORT (INCLUDING
     // NEGLIGENCE OR OTHERWISE) ARISING IN ANY WAY OUT OF THE USE OF THIS
     // SOFTWARE, EVEN IF ADVISED OF THE POSSIBILITY OF SUCH DAMAGE.
     // 
     ////////////////////////////////////////////////////////////////////////-->

<graphml xsi:schemaLocation="http://graphml.graphdrawing.org/xmlns http://www.yworks.com/xml/schema/graphml.html/2.0/ygraphml.xsd " xmlns="http://graphml.graphdrawing.org/xmlns"
          xmlns:x="http://www.yworks.com/xml/yfiles-common/markup/3.0" xmlns:y="http://www.yworks.com/xml/yfiles-common/3.0"
          xmlns:yjs="http://www.yworks.com/xml/yfiles-for-html/2.0/xaml" xmlns:xsi="http://www.w3.org/2001/XMLSchema-instance">
	<graph id="G" edgedefault="directed">
		<node id="n0">
			<port name="p0"/>
			<port name="p1"/>
		</node>
		<node id="n1">
			<port name="p0"/>
			<port name="p1"/>
		</node>
		<node id="n2">
			<port name="p0"/>
			<port name="p1"/>
		</node>
		<node id="n3">
			<port name="p0"/>
			<port name="p1"/>
		</node>
		<node id="n4">
			<port name="p0"/>
			<port name="p1"/>
			<port name="p2"/>
		</node>
		<node id="n5">
			<port name="p0"/>
			<port name="p1"/>
		</node>
		<node id="n6">
			<port name="p0"/>
			<port name="p1"/>
		</node>
		<node id="n7">
			<port name="p0"/>
			<port name="p1"/>
		</node>
		<node id="n8">
			<port name="p0"/>
			<port name="p1"/>
		</node>
		<node id="n9">
			<port name="p0"/>
			<port name="p1"/>
		</node>
		<node id="n10">
			<port name="p0"/>
			<port name="p1"/>
			<port name="p2"/>
			<port name="p3"/>
		</node>
		<node id="n11">
			<port name="p0"/>
			<port name="p1"/>
		</node>
		<node id="n12">
			<port name="p0"/>
			<port name="p1"/>
		</node>
		<node id="n13">
			<port name="p0"/>
			<port name="p1"/>
			<port name="p2"/>
		</node>
		<node id="n14">
			<port name="p0"/>
			<port name="p1"/>
			<port name="p2"/>
			<port name="p3"/>
		</node>
		<node id="n15">
			<port name="p0"/>
			<port name="p1"/>
			<port name="p2"/>
		</node>
		<node id="n16">
			<port name="p0"/>
			<port name="p1"/>
			<port name="p2"/>
		</node>
		<node id="n17">
			<port name="p0"/>
			<port name="p1"/>
		</node>
		<node id="n18">
			<port name="p0"/>
			<port name="p1"/>
		</node>
		<node id="n19">
			<port name="p0"/>
			<port name="p1"/>
		</node>
		<node id="n20">
			<port name="p0"/>
			<port name="p1"/>
		</node>
		<node id="n21">
			<port name="p0"/>
			<port name="p1"/>
		</node>
		<node id="n22">
			<port name="p0"/>
			<port name="p1"/>
		</node>
		<node id="n23">
			<port name="p0"/>
			<port name="p1"/>
		</node>
		<node id="n24">
			<port name="p0"/>
			<port name="p1"/>
		</node>
		<node id="n25">
			<port name="p0"/>
			<port name="p1"/>
		</node>
		<node id="n26">
			<port name="p0"/>
			<port name="p1"/>
		</node>
		<node id="n27">
			<port name="p0"/>
			<port name="p1"/>
		</node>
		<node id="n28">
			<port name="p0"/>
			<port name="p1"/>
		</node>
		<node id="n29">
			<port name="p0"/>
			<port name="p1"/>
		</node>
		<node id="n30">
			<port name="p0"/>
			<port name="p1"/>
			<port name="p2"/>
		</node>
		<node id="n31">
			<port name="p0"/>
			<port name="p1"/>
		</node>
		<node id="n32">
			<port name="p0"/>
			<port name="p1"/>
			<port name="p2"/>
		</node>
		<node id="n33">
			<port name="p0"/>
			<port name="p1"/>
		</node>
		<node id="n34">
			<port name="p0"/>
			<port name="p1"/>
			<port name="p2"/>
		</node>
		<node id="n35">
			<port name="p0"/>
			<port name="p1"/>
			<port name="p2"/>
		</node>
		<node id="n36">
			<port name="p0"/>
			<port name="p1"/>
			<port name="p2"/>
		</node>
		<node id="n37">
			<port name="p0"/>
			<port name="p1"/>
		</node>
		<node id="n38">
			<port name="p0"/>
			<port name="p1"/>
			<port name="p2"/>
		</node>
		<node id="n39">
			<port name="p0"/>
			<port name="p1"/>
		</node>
		<node id="n40">
			<port name="p0"/>
			<port name="p1"/>
		</node>
		<node id="n41">
			<port name="p0"/>
			<port name="p1"/>
		</node>
		<node id="n42">
			<port name="p0"/>
			<port name="p1"/>
			<port name="p2"/>
		</node>
		<node id="n43">
			<port name="p0"/>
			<port name="p1"/>
			<port name="p2"/>
		</node>
		<node id="n44">
			<port name="p0"/>
			<port name="p1"/>
			<port name="p2"/>
		</node>
		<node id="n45">
			<port name="p0"/>
			<port name="p1"/>
		</node>
		<node id="n46">
			<port name="p0"/>
			<port name="p1"/>
		</node>
		<node id="n47">
			<port name="p0"/>
			<port name="p1"/>
		</node>
		<node id="n48">
			<port name="p0"/>
			<port name="p1"/>
		</node>
		<node id="n49">
			<port name="p0"/>
			<port name="p1"/>
			<port name="p2"/>
		</node>
		<node id="n50">
			<port name="p0"/>
			<port name="p1"/>
		</node>
		<node id="n51">
			<port name="p0"/>
			<port name="p1"/>
		</node>
		<node id="n52">
			<port name="p0"/>
			<port name="p1"/>
		</node>
		<edge id="e0" source="n2" target="n3" sourceport="p0" targetport="p0">
		</edge>
		<edge id="e1" source="n3" target="n1" sourceport="p1" targetport="p0">
		</edge>
		<edge id="e2" source="n1" target="n4" sourceport="p1" targetport="p0">
		</edge>
		<edge id="e3" source="n4" target="n0" sourceport="p1" targetport="p0">
		</edge>
		<edge id="e4" source="n0" target="n2" sourceport="p1" targetport="p1">
		</edge>
		<edge id="e5" source="n5" target="n10" sourceport="p0" targetport="p0">
		</edge>
		<edge id="e6" source="n5" target="n6" sourceport="p1" targetport="p0">
		</edge>
		<edge id="e7" source="n7" target="n6" sourceport="p0" targetport="p1">
		</edge>
		<edge id="e8" source="n7" target="n8" sourceport="p1" targetport="p0">
		</edge>
		<edge id="e9" source="n9" target="n8" sourceport="p0" targetport="p1">
		</edge>
		<edge id="e10" source="n9" target="n10" sourceport="p1" targetport="p1">
		</edge>
		<edge id="e11" source="n12" target="n13" sourceport="p0" targetport="p0">
		</edge>
		<edge id="e12" source="n11" target="n13" sourceport="p0" targetport="p1">
		</edge>
		<edge id="e13" source="n14" target="n13" sourceport="p0" targetport="p2">
		</edge>
		<edge id="e14" source="n14" target="n4" sourceport="p1" targetport="p2">
		</edge>
		<edge id="e15" source="n15" target="n16" sourceport="p0" targetport="p0">
		</edge>
		<edge id="e16" source="n17" target="n12" sourceport="p0" targetport="p1">
		</edge>
		<edge id="e17" source="n17" target="n11" sourceport="p1" targetport="p1">
		</edge>
		<edge id="e18" source="n16" target="n23" sourceport="p1" targetport="p0">
		</edge>
		<edge id="e19" source="n23" target="n22" sourceport="p1" targetport="p0">
		</edge>
		<edge id="e20" source="n24" target="n16" sourceport="p0" targetport="p2">
		</edge>
		<edge id="e21" source="n22" target="n21" sourceport="p1" targetport="p0">
		</edge>
		<edge id="e22" source="n21" target="n20" sourceport="p1" targetport="p0">
		</edge>
		<edge id="e23" source="n20" target="n19" sourceport="p1" targetport="p0">
		</edge>
		<edge id="e24" source="n19" target="n18" sourceport="p1" targetport="p0">
		</edge>
		<edge id="e25" source="n18" target="n25" sourceport="p1" targetport="p0">
		</edge>
		<edge id="e26" source="n25" target="n24" sourceport="p1" targetport="p1">
		</edge>
		<edge id="e27" source="n27" target="n26" sourceport="p0" targetport="p0">
		</edge>
		<edge id="e28" source="n26" target="n31" sourceport="p1" targetport="p0">
		</edge>
		<edge id="e29" source="n31" target="n30" sourceport="p1" targetport="p0">
		</edge>
		<edge id="e30" source="n30" target="n29" sourceport="p1" targetport="p0">
		</edge>
		<edge id="e31" source="n29" target="n28" sourceport="p1" targetport="p0">
		</edge>
		<edge id="e32" source="n28" target="n27" sourceport="p1" targetport="p1">
		</edge>
		<edge id="e33" source="n15" target="n10" sourceport="p1" targetport="p2">
		</edge>
		<edge id="e34" source="n14" target="n30" sourceport="p2" targetport="p2">
		</edge>
		<edge id="e35" source="n33" target="n34" sourceport="p0" targetport="p0">
		</edge>
		<edge id="e36" source="n34" target="n35" sourceport="p1" targetport="p0">
		</edge>
		<edge id="e37" source="n35" target="n36" sourceport="p1" targetport="p0">
		</edge>
		<edge id="e38" source="n36" target="n37" sourceport="p1" targetport="p0">
		</edge>
		<edge id="e39" source="n37" target="n32" sourceport="p1" targetport="p0">
		</edge>
		<edge id="e40" source="n32" target="n33" sourceport="p1" targetport="p1">
		</edge>
		<edge id="e41" source="n14" target="n32" sourceport="p3" targetport="p2">
		</edge>
		<edge id="e42" source="n15" target="n35" sourceport="p2" targetport="p2">
		</edge>
		<edge id="e43" source="n40" target="n38" sourceport="p0" targetport="p0">
		</edge>
		<edge id="e44" source="n40" target="n39" sourceport="p1" targetport="p0">
		</edge>
		<edge id="e45" source="n39" target="n38" sourceport="p1" targetport="p1">
		</edge>
		<edge id="e46" source="n41" target="n43" sourceport="p0" targetport="p0">
		</edge>
		<edge id="e47" source="n43" target="n42" sourceport="p1" targetport="p0">
		</edge>
		<edge id="e48" source="n42" target="n41" sourceport="p1" targetport="p1">
		</edge>
		<edge id="e49" source="n36" target="n43" sourceport="p2" targetport="p2">
		</edge>
		<edge id="e50" source="n47" target="n48" sourceport="p0" targetport="p0">
		</edge>
		<edge id="e51" source="n46" target="n48" sourceport="p0" targetport="p1">
		</edge>
		<edge id="e52" source="n46" target="n45" sourceport="p1" targetport="p0">
		</edge>
		<edge id="e53" source="n45" target="n44" sourceport="p1" targetport="p0">
		</edge>
		<edge id="e54" source="n44" target="n47" sourceport="p1" targetport="p1">
		</edge>
		<edge id="e55" source="n44" target="n42" sourceport="p2" targetport="p2">
		</edge>
		<edge id="e56" source="n50" target="n49" sourceport="p0" targetport="p0">
		</edge>
		<edge id="e57" source="n49" target="n52" sourceport="p1" targetport="p0">
		</edge>
		<edge id="e58" source="n52" target="n51" sourceport="p1" targetport="p0">
		</edge>
		<edge id="e59" source="n51" target="n50" sourceport="p1" targetport="p1">
		</edge>
		<edge id="e60" source="n49" target="n10" sourceport="p2" targetport="p3">
		</edge>
		<edge id="e61" source="n38" target="n34" sourceport="p2" targetport="p2">
		</edge>
	</graph>
</graphml>
