<?xml version="1.0" encoding="UTF-8" standalone="no"?>
<!-- ////////////////////////////////////////////////////////////////////////
     // @license
     // This demo file is part of yFiles for HTML 2.1.0.6.
     // Copyright (c) 2000-2019 by yWorks GmbH, Vor dem Kreuzberg 28,
     // 72070 Tuebingen, Germany. All rights reserved.
     //
     // yFiles demo files exhibit yFiles for HTML functionalities. Any redistribution
     // of demo files in source code or binary form, with or without
     // modification, is not permitted.
     //
     // Owners of a valid software license for a yFiles for HTML version that this
     // demo is shipped with are allowed to use the demo source code as basis
     // for their own yFiles for HTML powered applications. Use of such programs is
     // governed by the rights and conditions as set out in the yFiles for HTML
     // license agreement.
     //
     // THIS SOFTWARE IS PROVIDED ''AS IS'' AND ANY EXPRESS OR IMPLIED
     // WARRANTIES, INCLUDING, BUT NOT LIMITED TO, THE IMPLIED WARRANTIES OF
     // MERCHANTABILITY AND FITNESS FOR A PARTICULAR PURPOSE ARE DISCLAIMED. IN
     // NO EVENT SHALL yWorks BE LIABLE FOR ANY DIRECT, INDIRECT, INCIDENTAL,
     // SPECIAL, EXEMPLARY, OR CONSEQUENTIAL DAMAGES (INCLUDING, BUT NOT LIMITED
     // TO, PROCUREMENT OF SUBSTITUTE GOODS OR SERVICES; LOSS OF USE, DATA, OR
     // PROFITS; OR BUSINESS INTERRUPTION) HOWEVER CAUSED AND ON ANY THEORY OF
     // LIABILITY, WHETHER IN CONTRACT, STRICT LIABILITY, OR TORT (INCLUDING
     // NEGLIGENCE OR OTHERWISE) ARISING IN ANY WAY OUT OF THE USE OF THIS
     // SOFTWARE, EVEN IF ADVISED OF THE POSSIBILITY OF SUCH DAMAGE.
     // 
     ////////////////////////////////////////////////////////////////////////-->

<graphml xsi:schemaLocation="http://graphml.graphdrawing.org/xmlns http://www.yworks.com/xml/schema/graphml.html/2.0/ygraphml.xsd " xmlns="http://graphml.graphdrawing.org/xmlns" xmlns:bpmn="http://www.yworks.com/xml/yfiles-for-html/bpmn/2.0" xmlns:y="http://www.yworks.com/xml/yfiles-common/3.0" xmlns:x="http://www.yworks.com/xml/yfiles-common/markup/3.0" xmlns:yjs="http://www.yworks.com/xml/yfiles-for-html/2.0/xaml" xmlns:xsi="http://www.w3.org/2001/XMLSchema-instance">
	<key id="d0" for="node" attr.type="boolean" attr.name="Expanded" y:attr.uri="http://www.yworks.com/xml/yfiles-common/2.0/folding/Expanded">
		<default>true</default>
	</key>
	<key id="d1" for="node" attr.name="NodeLabels" y:attr.uri="http://www.yworks.com/xml/yfiles-common/2.0/NodeLabels"/>
	<key id="d2" for="node" attr.name="NodeGeometry" y:attr.uri="http://www.yworks.com/xml/yfiles-common/2.0/NodeGeometry"/>
	<key id="d3" for="all" attr.name="UserTags" y:attr.uri="http://www.yworks.com/xml/yfiles-common/2.0/UserTags"/>
	<key id="d4" for="node" attr.name="NodeStyle" y:attr.uri="http://www.yworks.com/xml/yfiles-common/2.0/NodeStyle"/>
	<key id="d5" for="node" attr.name="NodeViewState" y:attr.uri="http://www.yworks.com/xml/yfiles-common/2.0/folding/1.1/NodeViewState"/>
	<key id="d6" for="edge" attr.name="EdgeLabels" y:attr.uri="http://www.yworks.com/xml/yfiles-common/2.0/EdgeLabels"/>
	<key id="d7" for="edge" attr.name="EdgeGeometry" y:attr.uri="http://www.yworks.com/xml/yfiles-common/2.0/EdgeGeometry"/>
	<key id="d8" for="edge" attr.name="EdgeStyle" y:attr.uri="http://www.yworks.com/xml/yfiles-common/2.0/EdgeStyle"/>
	<key id="d9" for="edge" attr.name="EdgeViewState" y:attr.uri="http://www.yworks.com/xml/yfiles-common/2.0/folding/1.1/EdgeViewState"/>
	<key id="d10" for="port" attr.name="PortLocationParameter" y:attr.uri="http://www.yworks.com/xml/yfiles-common/2.0/PortLocationParameter">
		<default>
			<x:Static Member="y:FreeNodePortLocationModel.NodeCenterAnchored"/>
		</default>
	</key>
	<key id="d11" for="port" attr.name="PortStyle" y:attr.uri="http://www.yworks.com/xml/yfiles-common/2.0/PortStyle">
		<default>
			<x:Static Member="y:VoidPortStyle.Instance"/>
		</default>
	</key>
	<key id="d12" for="port" attr.name="PortViewState" y:attr.uri="http://www.yworks.com/xml/yfiles-common/2.0/folding/1.1/PortViewState"/>
	<key id="d13" attr.name="SharedData" y:attr.uri="http://www.yworks.com/xml/yfiles-common/2.0/SharedData"/>
	<data key="d13">
		<y:SharedData>
			<yjs:DefaultLabelStyle x:Key="1" verticalTextAlignment="CENTER" horizontalTextAlignment="CENTER" textFill="BLACK">
				<yjs:DefaultLabelStyle.font>
					<yjs:Font fontSize="12"/>
				</yjs:DefaultLabelStyle.font>
			</yjs:DefaultLabelStyle>
			<bpmn:BpmnEdgeStyle x:Key="2"/>
		</y:SharedData>
	</data>
	<graph id="G" edgedefault="directed">
		<node id="n0">
			<data key="d2">
				<y:RectD X="0" Y="-88.5" Width="50" Height="50"/>
			</data>
			<data key="d4">
				<bpmn:EventNodeStyle minimumSize="20,20"/>
			</data>
			<port name="p0"/>
			<port name="p1">
				<data key="d10">
					<y:FreeNodePortLocationModelParameter Ratio="1,0.5"/>
				</data>
			</port>
		</node>
		<node id="n1">
			<data key="d1">
				<x:List>
					<y:Label Style="{y:GraphMLReference 1}">
						<y:Label.Text><![CDATA[Identify
Demand]]></y:Label.Text>
						<y:Label.LayoutParameter>
							<y:InteriorLabelModelParameter Position="Center">
								<y:InteriorLabelModelParameter.Model>
									<y:InteriorLabelModel/>
								</y:InteriorLabelModelParameter.Model>
							</y:InteriorLabelModelParameter>
						</y:Label.LayoutParameter>
					</y:Label>
				</x:List>
			</data>
			<data key="d2">
				<y:RectD X="90" Y="-100.25" Width="80" Height="73.5"/>
			</data>
			<data key="d4">
				<bpmn:ActivityNodeStyle loopCharacteristic="LOOP" minimumSize="40,40"/>
			</data>
			<graph id="n1:" edgedefault="directed"/>
			<port name="p0"/>
			<port name="p1">
				<data key="d10">
					<y:FreeNodePortLocationModelParameter Ratio="0,0.5"/>
				</data>
			</port>
			<port name="p2">
				<data key="d10">
					<y:FreeNodePortLocationModelParameter Ratio="1,0.5"/>
				</data>
			</port>
		</node>
		<node id="n2">
			<data key="d1">
				<x:List>
					<y:Label>
						<y:Label.Text><![CDATA[Obtain Offer]]></y:Label.Text>
						<y:Label.LayoutParameter>
							<y:InteriorLabelModelParameter Position="NorthWest">
								<y:InteriorLabelModelParameter.Model>
									<y:InteriorLabelModel Insets="10"/>
								</y:InteriorLabelModelParameter.Model>
							</y:InteriorLabelModelParameter>
						</y:Label.LayoutParameter>
						<y:Label.Style>
							<yjs:DefaultLabelStyle horizontalTextAlignment="RIGHT" textFill="BLACK">
								<yjs:DefaultLabelStyle.font>
									<yjs:Font fontSize="12"/>
								</yjs:DefaultLabelStyle.font>
							</yjs:DefaultLabelStyle>
						</y:Label.Style>
					</y:Label>
				</x:List>
			</data>
			<data key="d2">
				<y:RectD X="210" Y="-127" Width="620" Height="127"/>
			</data>
			<data key="d4">
				<bpmn:ActivityNodeStyle subState="DYNAMIC" insets="15,45,15,15" minimumSize="40,40"/>
			</data>
			<graph id="n2:" edgedefault="directed">
				<node id="n2::n0">
					<data key="d2">
						<y:RectD X="225" Y="-81" Width="50" Height="50"/>
					</data>
					<data key="d4">
						<bpmn:EventNodeStyle minimumSize="20,20"/>
					</data>
					<port name="p0">
						<data key="d10">
							<y:FreeNodePortLocationModelParameter Ratio="1,0.5"/>
						</data>
					</port>
				</node>
				<node id="n2::n1">
					<data key="d1">
						<x:List>
							<y:Label Style="{y:GraphMLReference 1}">
								<y:Label.Text><![CDATA[Select
Supplier]]></y:Label.Text>
								<y:Label.LayoutParameter>
									<y:InteriorLabelModelParameter Position="Center">
										<y:InteriorLabelModelParameter.Model>
											<y:InteriorLabelModel/>
										</y:InteriorLabelModelParameter.Model>
									</y:InteriorLabelModelParameter>
								</y:Label.LayoutParameter>
							</y:Label>
						</x:List>
					</data>
					<data key="d2">
						<y:RectD X="315" Y="-81" Width="80" Height="50"/>
					</data>
					<data key="d4">
						<bpmn:ActivityNodeStyle minimumSize="40,40"/>
					</data>
					<graph id="n2::n1:" edgedefault="directed"/>
					<port name="p0">
						<data key="d10">
							<y:FreeNodePortLocationModelParameter Ratio="0,0.5"/>
						</data>
					</port>
					<port name="p1">
						<data key="d10">
							<y:FreeNodePortLocationModelParameter Ratio="1,0.5"/>
						</data>
					</port>
				</node>
				<node id="n2::n2">
					<data key="d1">
						<x:List>
							<y:Label Style="{y:GraphMLReference 1}">
								<y:Label.Text><![CDATA[Request
Offer]]></y:Label.Text>
								<y:Label.LayoutParameter>
									<y:InteriorLabelModelParameter Position="Center">
										<y:InteriorLabelModelParameter.Model>
											<y:InteriorLabelModel/>
										</y:InteriorLabelModelParameter.Model>
									</y:InteriorLabelModelParameter>
								</y:Label.LayoutParameter>
							</y:Label>
						</x:List>
					</data>
					<data key="d2">
						<y:RectD X="435" Y="-81" Width="80" Height="50"/>
					</data>
					<data key="d4">
						<bpmn:ActivityNodeStyle minimumSize="40,40"/>
					</data>
					<graph id="n2::n2:" edgedefault="directed"/>
					<port name="p0">
						<data key="d10">
							<y:FreeNodePortLocationModelParameter Ratio="0,0.5"/>
						</data>
					</port>
					<port name="p1">
						<data key="d10">
							<y:FreeNodePortLocationModelParameter Ratio="1,0.5"/>
						</data>
					</port>
				</node>
				<node id="n2::n3">
					<data key="d1">
						<x:List>
							<y:Label Style="{y:GraphMLReference 1}">
								<y:Label.Text><![CDATA[Offer
received]]></y:Label.Text>
								<y:Label.LayoutParameter>
									<y:ExteriorLabelModelParameter Position="North">
										<y:ExteriorLabelModelParameter.Model>
											<y:ExteriorLabelModel Insets="5"/>
										</y:ExteriorLabelModelParameter.Model>
									</y:ExteriorLabelModelParameter>
								</y:Label.LayoutParameter>
							</y:Label>
						</x:List>
					</data>
					<data key="d2">
						<y:RectD X="555" Y="-81" Width="50" Height="50"/>
					</data>
					<data key="d4">
						<bpmn:EventNodeStyle type="MESSAGE" characteristic="CATCHING" minimumSize="20,20"/>
					</data>
					<port name="p0">
						<data key="d10">
							<y:FreeNodePortLocationModelParameter Ratio="0,0.5"/>
						</data>
					</port>
					<port name="p1">
						<data key="d10">
							<y:FreeNodePortLocationModelParameter Ratio="1,0.5"/>
						</data>
					</port>
				</node>
				<node id="n2::n4">
					<data key="d2">
						<y:RectD X="765" Y="-81" Width="50" Height="50"/>
					</data>
					<data key="d4">
						<bpmn:EventNodeStyle type="TERMINATE" characteristic="END" minimumSize="20,20"/>
					</data>
					<port name="p0">
						<data key="d10">
							<y:FreeNodePortLocationModelParameter Ratio="0.5,0.5666666666666648"/>
						</data>
					</port>
					<port name="p1">
						<data key="d10">
							<y:FreeNodePortLocationModelParameter Ratio="0,0.5"/>
						</data>
					</port>
				</node>
				<node id="n2::n5">
					<data key="d1">
						<x:List>
							<y:Label Style="{y:GraphMLReference 1}">
								<y:Label.Text><![CDATA[Check Offer]]></y:Label.Text>
								<y:Label.LayoutParameter>
									<y:InteriorLabelModelParameter Position="Center">
										<y:InteriorLabelModelParameter.Model>
											<y:InteriorLabelModel/>
										</y:InteriorLabelModelParameter.Model>
									</y:InteriorLabelModelParameter>
								</y:Label.LayoutParameter>
							</y:Label>
						</x:List>
					</data>
					<data key="d2">
						<y:RectD X="645" Y="-81" Width="80" Height="50"/>
					</data>
					<data key="d4">
						<bpmn:ActivityNodeStyle minimumSize="40,40"/>
					</data>
					<graph id="n2::n5:" edgedefault="directed"/>
					<port name="p0">
						<data key="d10">
							<y:FreeNodePortLocationModelParameter Ratio="0.5,0.5499999999999986"/>
						</data>
					</port>
					<port name="p1">
						<data key="d10">
							<y:FreeNodePortLocationModelParameter Ratio="0,0.5"/>
						</data>
					</port>
					<port name="p2">
						<data key="d10">
							<y:FreeNodePortLocationModelParameter Ratio="1,0.5"/>
						</data>
					</port>
				</node>
				<edge id="n2::e0" source="n2::n0" target="n2::n1" sourceport="p0" targetport="p0">
					<data key="d8">
						<y:GraphMLReference ResourceKey="2"/>
					</data>
				</edge>
				<edge id="n2::e1" source="n2::n1" target="n2::n2" sourceport="p1" targetport="p0">
					<data key="d8">
						<y:GraphMLReference ResourceKey="2"/>
					</data>
				</edge>
				<edge id="n2::e2" source="n2::n2" target="n2::n3" sourceport="p1" targetport="p0">
					<data key="d8">
						<y:GraphMLReference ResourceKey="2"/>
					</data>
				</edge>
				<edge id="n2::e3" source="n2::n3" target="n2::n5" sourceport="p1" targetport="p1">
					<data key="d8">
						<y:GraphMLReference ResourceKey="2"/>
					</data>
				</edge>
				<edge id="n2::e4" source="n2::n5" target="n2::n4" sourceport="p2" targetport="p1">
					<data key="d8">
						<y:GraphMLReference ResourceKey="2"/>
					</data>
				</edge>
			</graph>
			<port name="p0"/>
			<port name="p1">
				<data key="d10">
					<y:FreeNodePortLocationModelParameter Ratio="0,0.5"/>
				</data>
			</port>
			<port name="p2">
				<data key="d10">
					<y:FreeNodePortLocationModelParameter Ratio="1,0.5413385826771654"/>
				</data>
			</port>
		</node>
		<node id="n3">
			<data key="d2">
				<y:RectD X="990" Y="-83.25" Width="50" Height="50"/>
			</data>
			<data key="d4">
				<bpmn:EventNodeStyle type="TERMINATE" characteristic="END" minimumSize="20,20"/>
			</data>
			<port name="p0"/>
			<port name="p1">
				<data key="d10">
					<y:FreeNodePortLocationModelParameter Ratio="0,0.5"/>
				</data>
			</port>
		</node>
		<node id="n4">
			<data key="d1">
				<x:List>
					<y:Label Style="{y:GraphMLReference 1}">
						<y:Label.Text><![CDATA[Place
Order]]></y:Label.Text>
						<y:Label.LayoutParameter>
							<y:InteriorLabelModelParameter Position="Center">
								<y:InteriorLabelModelParameter.Model>
									<y:InteriorLabelModel/>
								</y:InteriorLabelModelParameter.Model>
							</y:InteriorLabelModelParameter>
						</y:Label.LayoutParameter>
					</y:Label>
				</x:List>
			</data>
			<data key="d2">
				<y:RectD X="870" Y="-83.25" Width="80" Height="50"/>
			</data>
			<data key="d4">
				<bpmn:ActivityNodeStyle minimumSize="40,40"/>
			</data>
			<graph id="n4:" edgedefault="directed"/>
			<port name="p0"/>
			<port name="p1">
				<data key="d10">
					<y:FreeNodePortLocationModelParameter Ratio="0,0.5"/>
				</data>
			</port>
			<port name="p2">
				<data key="d10">
					<y:FreeNodePortLocationModelParameter Ratio="1,0.5"/>
				</data>
			</port>
		</node>
		<edge id="e0" source="n0" target="n1" sourceport="p1" targetport="p1">
			<data key="d8">
				<y:GraphMLReference ResourceKey="2"/>
			</data>
		</edge>
		<edge id="e1" source="n1" target="n2" sourceport="p2" targetport="p1">
			<data key="d8">
				<y:GraphMLReference ResourceKey="2"/>
			</data>
		</edge>
		<edge id="e2" source="n2" target="n4" sourceport="p2" targetport="p1">
			<data key="d8">
				<y:GraphMLReference ResourceKey="2"/>
			</data>
		</edge>
		<edge id="e3" source="n4" target="n3" sourceport="p2" targetport="p1">
			<data key="d8">
				<y:GraphMLReference ResourceKey="2"/>
			</data>
		</edge>
	</graph>
</graphml>
