<?xml version="1.0" encoding="UTF-8" standalone="no"?>
<!-- ////////////////////////////////////////////////////////////////////////
     // @license
     // This demo file is part of yFiles for HTML 2.1.0.6.
     // Copyright (c) 2000-2019 by yWorks GmbH, Vor dem Kreuzberg 28,
     // 72070 Tuebingen, Germany. All rights reserved.
     //
     // yFiles demo files exhibit yFiles for HTML functionalities. Any redistribution
     // of demo files in source code or binary form, with or without
     // modification, is not permitted.
     //
     // Owners of a valid software license for a yFiles for HTML version that this
     // demo is shipped with are allowed to use the demo source code as basis
     // for their own yFiles for HTML powered applications. Use of such programs is
     // governed by the rights and conditions as set out in the yFiles for HTML
     // license agreement.
     //
     // THIS SOFTWARE IS PROVIDED ''AS IS'' AND ANY EXPRESS OR IMPLIED
     // WARRANTIES, INCLUDING, BUT NOT LIMITED TO, THE IMPLIED WARRANTIES OF
     // MERCHANTABILITY AND FITNESS FOR A PARTICULAR PURPOSE ARE DISCLAIMED. IN
     // NO EVENT SHALL yWorks BE LIABLE FOR ANY DIRECT, INDIRECT, INCIDENTAL,
     // SPECIAL, EXEMPLARY, OR CONSEQUENTIAL DAMAGES (INCLUDING, BUT NOT LIMITED
     // TO, PROCUREMENT OF SUBSTITUTE GOODS OR SERVICES; LOSS OF USE, DATA, OR
     // PROFITS; OR BUSINESS INTERRUPTION) HOWEVER CAUSED AND ON ANY THEORY OF
     // LIABILITY, WHETHER IN CONTRACT, STRICT LIABILITY, OR TORT (INCLUDING
     // NEGLIGENCE OR OTHERWISE) ARISING IN ANY WAY OUT OF THE USE OF THIS
     // SOFTWARE, EVEN IF ADVISED OF THE POSSIBILITY OF SUCH DAMAGE.
     // 
     ////////////////////////////////////////////////////////////////////////-->

<graphml xsi:schemaLocation="http://graphml.graphdrawing.org/xmlns http://www.yworks.com/xml/schema/graphml.html/2.0/ygraphml.xsd " xmlns="http://graphml.graphdrawing.org/xmlns" xmlns:x="http://www.yworks.com/xml/yfiles-common/markup/3.0" xmlns:y="http://www.yworks.com/xml/yfiles-common/3.0" xmlns:xsi="http://www.w3.org/2001/XMLSchema-instance" xmlns:yjs="http://www.yworks.com/xml/yfiles-for-html/2.0/xaml">
	<key id="d0" for="all" attr.name="UserTags" y:attr.uri="http://www.yworks.com/xml/yfiles-common/2.0/UserTags"/>
	<key id="d1" for="node" attr.name="NodeLabels" y:attr.uri="http://www.yworks.com/xml/yfiles-common/2.0/NodeLabels"/>
	<key id="d2" for="node" attr.name="NodeGeometry" y:attr.uri="http://www.yworks.com/xml/yfiles-common/2.0/NodeGeometry"/>
	<key id="d4" for="node" attr.type="boolean" attr.name="Expanded" y:attr.uri="http://www.yworks.com/xml/yfiles-common/2.0/folding/Expanded">
		<default>true</default>
	</key>
	<key id="d5" for="node" attr.name="NodeViewState" y:attr.uri="http://www.yworks.com/xml/yfiles-common/2.0/folding/1.1/NodeViewState"/>
	<key id="d6" for="edge" attr.name="EdgeLabels" y:attr.uri="http://www.yworks.com/xml/yfiles-common/2.0/EdgeLabels"/>
	<key id="d7" for="edge" attr.name="EdgeGeometry" y:attr.uri="http://www.yworks.com/xml/yfiles-common/2.0/EdgeGeometry"/>
	<key id="d9" for="edge" attr.name="EdgeViewState" y:attr.uri="http://www.yworks.com/xml/yfiles-common/2.0/folding/1.1/EdgeViewState"/>
	<key id="d10" for="port" attr.name="PortLocationParameter" y:attr.uri="http://www.yworks.com/xml/yfiles-common/2.0/PortLocationParameter">
		<default>
			<x:Static Member="y:FreeNodePortLocationModel.NodeCenterAnchored"/>
		</default>
	</key>
	<key id="d12" for="port" attr.name="PortViewState" y:attr.uri="http://www.yworks.com/xml/yfiles-common/2.0/folding/1.1/PortViewState"/>
	<key id="d13" attr.name="SharedData" y:attr.uri="http://www.yworks.com/xml/yfiles-common/2.0/SharedData"/>
	<data key="d13">
		<y:SharedData>
			<y:ExteriorLabelModelParameter x:Key="2" Position="North" Model="{y:GraphMLReference 4}"/>
			<y:ExteriorLabelModel x:Key="4" Insets="5"/>
			<y:EdgePathLabelModelParameter x:Key="5" SegmentRatio="1">
				<y:EdgePathLabelModelParameter.Model>
					<y:EdgePathLabelModel Distance="2" AutoRotationEnabled="false"/>
				</y:EdgePathLabelModelParameter.Model>
			</y:EdgePathLabelModelParameter>
		</y:SharedData>
	</data>
	<graph id="G" edgedefault="directed">
		<node id="n0">
			<data key="d2">
				<y:RectD Width="30" Height="30" Y="485" X="485"/>
			</data>
			<port name="p0"/>
			<port name="p1"/>
			<port name="p2"/>
			<port name="p3"/>
			<port name="p4"/>
			<port name="p5"/>
			<port name="p6"/>
			<port name="p7"/>
			<port name="p8"/>
			<port name="p9"/>
			<port name="p10"/>
			<port name="p11"/>
			<port name="p12"/>
			<port name="p13"/>
			<port name="p14"/>
			<port name="p15"/>
			<port name="p16"/>
			<port name="p17"/>
			<port name="p18"/>
			<port name="p19"/>
			<port name="p20"/>
			<port name="p21"/>
		</node>
		<node id="n1">
			<data key="d1">
				<x:List>
					<y:Label PreferredSize="74,14" LayoutParameter="{y:GraphMLReference 2}">
						<y:Label.Text><![CDATA[Workstation 0]]></y:Label.Text>
					</y:Label>
				</x:List>
			</data>
			<data key="d2">
				<y:RectD Width="30" Height="30" Y="164.5859030837005" X="517.863436123348"/>
			</data>
			<port name="p0"/>
		</node>
		<node id="n2">
			<data key="d1">
				<x:List>
					<y:Label PreferredSize="74,14" LayoutParameter="{y:GraphMLReference 2}">
						<y:Label.Text><![CDATA[Workstation 1]]></y:Label.Text>
					</y:Label>
				</x:List>
			</data>
			<data key="d2">
				<y:RectD Width="30" Height="30" Y="164.5859030837005" X="681.363436123348"/>
			</data>
			<port name="p0"/>
		</node>
		<node id="n3">
			<data key="d1">
				<x:List>
					<y:Label PreferredSize="74,14" LayoutParameter="{y:GraphMLReference 2}">
						<y:Label.Text><![CDATA[Workstation 2]]></y:Label.Text>
					</y:Label>
				</x:List>
			</data>
			<data key="d2">
				<y:RectD Width="30" Height="30" Y="164.5859030837005" X="844.863436123348"/>
			</data>
			<port name="p0"/>
		</node>
		<node id="n4">
			<data key="d1">
				<x:List>
					<y:Label PreferredSize="74,14">
						<y:Label.Text><![CDATA[Workstation 3]]></y:Label.Text>
						<y:Label.LayoutParameter>
							<y:ExteriorLabelModelParameter Position="South" Model="{y:GraphMLReference 4}"/>
						</y:Label.LayoutParameter>
					</y:Label>
				</x:List>
			</data>
			<data key="d2">
				<y:RectD Width="30" Height="30" Y="274.5859030837005" X="548.863436123348"/>
			</data>
			<port name="p0"/>
		</node>
		<node id="n5">
			<data key="d1">
				<x:List>
					<y:Label PreferredSize="74,14">
						<y:Label.Text><![CDATA[Workstation 4]]></y:Label.Text>
						<y:Label.LayoutParameter>
							<y:ExteriorLabelModelParameter Position="South" Model="{y:GraphMLReference 4}"/>
						</y:Label.LayoutParameter>
					</y:Label>
				</x:List>
			</data>
			<data key="d2">
				<y:RectD Width="30" Height="30" Y="274.5859030837005" X="648.863436123348"/>
			</data>
			<port name="p0"/>
		</node>
		<node id="n6">
			<data key="d1">
				<x:List>
					<y:Label PreferredSize="74,14">
						<y:Label.Text><![CDATA[Workstation 5]]></y:Label.Text>
						<y:Label.LayoutParameter>
							<y:ExteriorLabelModelParameter Position="South" Model="{y:GraphMLReference 4}"/>
						</y:Label.LayoutParameter>
					</y:Label>
				</x:List>
			</data>
			<data key="d2">
				<y:RectD Width="30" Height="30" Y="274.5859030837005" X="748.863436123348"/>
			</data>
			<port name="p0"/>
		</node>
		<node id="n7">
			<data key="d1">
				<x:List>
					<y:Label PreferredSize="74,14" LayoutParameter="{y:GraphMLReference 2}">
						<y:Label.Text><![CDATA[Workstation 0]]></y:Label.Text>
					</y:Label>
				</x:List>
			</data>
			<data key="d2">
				<y:RectD Width="30" Height="30" Y="287.9118942731277" X="-0.14278017241372254"/>
			</data>
			<port name="p0"/>
		</node>
		<node id="n8">
			<data key="d1">
				<x:List>
					<y:Label PreferredSize="74,14" LayoutParameter="{y:GraphMLReference 2}">
						<y:Label.Text><![CDATA[Workstation 1]]></y:Label.Text>
					</y:Label>
				</x:List>
			</data>
			<data key="d2">
				<y:RectD Width="30" Height="30" Y="287.9118942731277" X="99.85721982758628"/>
			</data>
			<port name="p0"/>
		</node>
		<node id="n9">
			<data key="d1">
				<x:List>
					<y:Label PreferredSize="74,14" LayoutParameter="{y:GraphMLReference 2}">
						<y:Label.Text><![CDATA[Workstation 2]]></y:Label.Text>
					</y:Label>
				</x:List>
			</data>
			<data key="d2">
				<y:RectD Width="30" Height="30" Y="255.48876770763832" X="199.85721982758628"/>
			</data>
			<port name="p0"/>
		</node>
		<node id="n10">
			<data key="d1">
				<x:List>
					<y:Label PreferredSize="74,14" LayoutParameter="{y:GraphMLReference 2}">
						<y:Label.Text><![CDATA[Workstation 3]]></y:Label.Text>
					</y:Label>
				</x:List>
			</data>
			<data key="d2">
				<y:RectD Width="30" Height="30" Y="287.9118942731277" X="299.8572198275863"/>
			</data>
			<port name="p0"/>
		</node>
		<node id="n11">
			<data key="d1">
				<x:List>
					<y:Label PreferredSize="74,14">
						<y:Label.Text><![CDATA[Workstation 4]]></y:Label.Text>
						<y:Label.LayoutParameter>
							<y:ExteriorLabelModelParameter Position="South" Model="{y:GraphMLReference 4}"/>
						</y:Label.LayoutParameter>
					</y:Label>
				</x:List>
			</data>
			<data key="d2">
				<y:RectD Width="30" Height="30" Y="378" X="-0.14278017241372254"/>
			</data>
			<port name="p0"/>
		</node>
		<node id="n12">
			<data key="d1">
				<x:List>
					<y:Label PreferredSize="74,14">
						<y:Label.Text><![CDATA[Workstation 5]]></y:Label.Text>
						<y:Label.LayoutParameter>
							<y:ExteriorLabelModelParameter Position="South" Model="{y:GraphMLReference 4}"/>
						</y:Label.LayoutParameter>
					</y:Label>
				</x:List>
			</data>
			<data key="d2">
				<y:RectD Width="30" Height="30" Y="439.881043576441" X="99.85721982758628"/>
			</data>
			<port name="p0"/>
		</node>
		<node id="n13">
			<data key="d1">
				<x:List>
					<y:Label PreferredSize="74,14">
						<y:Label.Text><![CDATA[Workstation 6]]></y:Label.Text>
						<y:Label.LayoutParameter>
							<y:ExteriorLabelModelParameter Position="South" Model="{y:GraphMLReference 4}"/>
						</y:Label.LayoutParameter>
					</y:Label>
				</x:List>
			</data>
			<data key="d2">
				<y:RectD Width="30" Height="30" Y="378" X="199.85721982758628"/>
			</data>
			<port name="p0"/>
		</node>
		<node id="n14">
			<data key="d1">
				<x:List>
					<y:Label PreferredSize="74,14">
						<y:Label.Text><![CDATA[Workstation 7]]></y:Label.Text>
						<y:Label.LayoutParameter>
							<y:ExteriorLabelModelParameter Position="South" Model="{y:GraphMLReference 4}"/>
						</y:Label.LayoutParameter>
					</y:Label>
				</x:List>
			</data>
			<data key="d2">
				<y:RectD Width="30" Height="30" Y="378" X="299.8572198275863"/>
			</data>
			<port name="p0"/>
		</node>
		<node id="n15">
			<data key="d1">
				<x:List>
					<y:Label PreferredSize="74,14">
						<y:Label.Text><![CDATA[Workstation 0]]></y:Label.Text>
						<y:Label.LayoutParameter>
							<y:ExteriorLabelModelParameter Position="South" Model="{y:GraphMLReference 4}"/>
						</y:Label.LayoutParameter>
					</y:Label>
				</x:List>
			</data>
			<data key="d2">
				<y:RectD Width="30" Height="30" Y="708" X="179.99999999999994"/>
			</data>
			<port name="p0"/>
		</node>
		<node id="n16">
			<data key="d1">
				<x:List>
					<y:Label PreferredSize="74,14">
						<y:Label.Text><![CDATA[Workstation 1]]></y:Label.Text>
						<y:Label.LayoutParameter>
							<y:ExteriorLabelModelParameter Position="South" Model="{y:GraphMLReference 4}"/>
						</y:Label.LayoutParameter>
					</y:Label>
				</x:List>
			</data>
			<data key="d2">
				<y:RectD Width="30" Height="30" Y="708" X="299.8572198275863"/>
			</data>
			<port name="p0"/>
		</node>
		<node id="n17">
			<data key="d1">
				<x:List>
					<y:Label PreferredSize="74,14">
						<y:Label.Text><![CDATA[Workstation 2]]></y:Label.Text>
						<y:Label.LayoutParameter>
							<y:ExteriorLabelModelParameter Position="South" Model="{y:GraphMLReference 4}"/>
						</y:Label.LayoutParameter>
					</y:Label>
				</x:List>
			</data>
			<data key="d2">
				<y:RectD Width="30" Height="30" Y="708" X="419.7144396551724"/>
			</data>
			<port name="p0"/>
		</node>
		<node id="n18">
			<data key="d1">
				<x:List>
					<y:Label PreferredSize="74,14">
						<y:Label.Text><![CDATA[Workstation 3]]></y:Label.Text>
						<y:Label.LayoutParameter>
							<y:ExteriorLabelModelParameter Position="South" Model="{y:GraphMLReference 4}"/>
						</y:Label.LayoutParameter>
					</y:Label>
				</x:List>
			</data>
			<data key="d2">
				<y:RectD Width="30" Height="30" Y="708" X="539.5716594827586"/>
			</data>
			<port name="p0"/>
		</node>
		<node id="n19">
			<data key="d1">
				<x:List>
					<y:Label PreferredSize="74,14" LayoutParameter="{y:GraphMLReference 2}">
						<y:Label.Text><![CDATA[Workstation 4]]></y:Label.Text>
					</y:Label>
				</x:List>
			</data>
			<data key="d2">
				<y:RectD Width="30" Height="30" Y="603" X="179.99999999999994"/>
			</data>
			<port name="p0"/>
		</node>
		<node id="n20">
			<data key="d1">
				<x:List>
					<y:Label PreferredSize="74,14" LayoutParameter="{y:GraphMLReference 2}">
						<y:Label.Text><![CDATA[Workstation 5]]></y:Label.Text>
					</y:Label>
				</x:List>
			</data>
			<data key="d2">
				<y:RectD Width="30" Height="30" Y="603" X="299.8572198275863"/>
			</data>
			<port name="p0"/>
		</node>
		<node id="n21">
			<data key="d1">
				<x:List>
					<y:Label PreferredSize="74,14" LayoutParameter="{y:GraphMLReference 2}">
						<y:Label.Text><![CDATA[Workstation 6]]></y:Label.Text>
					</y:Label>
				</x:List>
			</data>
			<data key="d2">
				<y:RectD Width="30" Height="30" Y="603" X="419.71443965517244"/>
			</data>
			<port name="p0"/>
		</node>
		<node id="n22">
			<data key="d1">
				<x:List>
					<y:Label PreferredSize="74,14" LayoutParameter="{y:GraphMLReference 2}">
						<y:Label.Text><![CDATA[Workstation 7]]></y:Label.Text>
					</y:Label>
				</x:List>
			</data>
			<data key="d2">
				<y:RectD Width="30" Height="30" Y="603" X="539.5716594827586"/>
			</data>
			<port name="p0"/>
		</node>
		<edge id="e0" source="n0" target="n1" sourceport="p0" targetport="p0">
			<data key="d6">
				<x:List>
					<y:Label PreferredSize="29,14" LayoutParameter="{y:GraphMLReference 5}">
						<y:Label.Text><![CDATA[Net 0]]></y:Label.Text>
					</y:Label>
				</x:List>
			</data>
		</edge>
		<edge id="e1" source="n0" target="n2" sourceport="p1" targetport="p0">
			<data key="d6">
				<x:List>
					<y:Label PreferredSize="29,14" LayoutParameter="{y:GraphMLReference 5}">
						<y:Label.Text><![CDATA[Net 0]]></y:Label.Text>
					</y:Label>
				</x:List>
			</data>
		</edge>
		<edge id="e2" source="n0" target="n3" sourceport="p2" targetport="p0">
			<data key="d6">
				<x:List>
					<y:Label PreferredSize="29,14" LayoutParameter="{y:GraphMLReference 5}">
						<y:Label.Text><![CDATA[Net 0]]></y:Label.Text>
					</y:Label>
				</x:List>
			</data>
		</edge>
		<edge id="e3" source="n0" target="n4" sourceport="p3" targetport="p0">
			<data key="d6">
				<x:List>
					<y:Label PreferredSize="29,14" LayoutParameter="{y:GraphMLReference 5}">
						<y:Label.Text><![CDATA[Net 0]]></y:Label.Text>
					</y:Label>
				</x:List>
			</data>
		</edge>
		<edge id="e4" source="n0" target="n5" sourceport="p4" targetport="p0">
			<data key="d6">
				<x:List>
					<y:Label PreferredSize="29,14" LayoutParameter="{y:GraphMLReference 5}">
						<y:Label.Text><![CDATA[Net 0]]></y:Label.Text>
					</y:Label>
				</x:List>
			</data>
		</edge>
		<edge id="e5" source="n0" target="n6" sourceport="p5" targetport="p0">
			<data key="d6">
				<x:List>
					<y:Label PreferredSize="29,14" LayoutParameter="{y:GraphMLReference 5}">
						<y:Label.Text><![CDATA[Net 0]]></y:Label.Text>
					</y:Label>
				</x:List>
			</data>
		</edge>
		<edge id="e6" source="n0" target="n7" sourceport="p6" targetport="p0">
			<data key="d6">
				<x:List>
					<y:Label PreferredSize="29,14" LayoutParameter="{y:GraphMLReference 5}">
						<y:Label.Text><![CDATA[Net 1]]></y:Label.Text>
					</y:Label>
				</x:List>
			</data>
		</edge>
		<edge id="e7" source="n0" target="n8" sourceport="p7" targetport="p0">
			<data key="d6">
				<x:List>
					<y:Label PreferredSize="29,14" LayoutParameter="{y:GraphMLReference 5}">
						<y:Label.Text><![CDATA[Net 1]]></y:Label.Text>
					</y:Label>
				</x:List>
			</data>
		</edge>
		<edge id="e8" source="n0" target="n9" sourceport="p8" targetport="p0">
			<data key="d6">
				<x:List>
					<y:Label PreferredSize="29,14" LayoutParameter="{y:GraphMLReference 5}">
						<y:Label.Text><![CDATA[Net 1]]></y:Label.Text>
					</y:Label>
				</x:List>
			</data>
		</edge>
		<edge id="e9" source="n0" target="n10" sourceport="p9" targetport="p0">
			<data key="d6">
				<x:List>
					<y:Label PreferredSize="29,14" LayoutParameter="{y:GraphMLReference 5}">
						<y:Label.Text><![CDATA[Net 1]]></y:Label.Text>
					</y:Label>
				</x:List>
			</data>
		</edge>
		<edge id="e10" source="n0" target="n11" sourceport="p10" targetport="p0">
			<data key="d6">
				<x:List>
					<y:Label PreferredSize="29,14" LayoutParameter="{y:GraphMLReference 5}">
						<y:Label.Text><![CDATA[Net 1]]></y:Label.Text>
					</y:Label>
				</x:List>
			</data>
		</edge>
		<edge id="e11" source="n0" target="n12" sourceport="p11" targetport="p0">
			<data key="d6">
				<x:List>
					<y:Label PreferredSize="29,14" LayoutParameter="{y:GraphMLReference 5}">
						<y:Label.Text><![CDATA[Net 1]]></y:Label.Text>
					</y:Label>
				</x:List>
			</data>
		</edge>
		<edge id="e12" source="n0" target="n13" sourceport="p12" targetport="p0">
			<data key="d6">
				<x:List>
					<y:Label PreferredSize="29,14" LayoutParameter="{y:GraphMLReference 5}">
						<y:Label.Text><![CDATA[Net 1]]></y:Label.Text>
					</y:Label>
				</x:List>
			</data>
		</edge>
		<edge id="e13" source="n0" target="n14" sourceport="p13" targetport="p0">
			<data key="d6">
				<x:List>
					<y:Label PreferredSize="29,14" LayoutParameter="{y:GraphMLReference 5}">
						<y:Label.Text><![CDATA[Net 1]]></y:Label.Text>
					</y:Label>
				</x:List>
			</data>
		</edge>
		<edge id="e14" source="n0" target="n15" sourceport="p14" targetport="p0">
			<data key="d6">
				<x:List>
					<y:Label PreferredSize="29,14" LayoutParameter="{y:GraphMLReference 5}">
						<y:Label.Text><![CDATA[Net 2]]></y:Label.Text>
					</y:Label>
				</x:List>
			</data>
		</edge>
		<edge id="e15" source="n0" target="n16" sourceport="p15" targetport="p0">
			<data key="d6">
				<x:List>
					<y:Label PreferredSize="29,14" LayoutParameter="{y:GraphMLReference 5}">
						<y:Label.Text><![CDATA[Net 2]]></y:Label.Text>
					</y:Label>
				</x:List>
			</data>
		</edge>
		<edge id="e16" source="n0" target="n17" sourceport="p16" targetport="p0">
			<data key="d6">
				<x:List>
					<y:Label PreferredSize="29,14" LayoutParameter="{y:GraphMLReference 5}">
						<y:Label.Text><![CDATA[Net 2]]></y:Label.Text>
					</y:Label>
				</x:List>
			</data>
		</edge>
		<edge id="e17" source="n0" target="n18" sourceport="p17" targetport="p0">
			<data key="d6">
				<x:List>
					<y:Label PreferredSize="29,14" LayoutParameter="{y:GraphMLReference 5}">
						<y:Label.Text><![CDATA[Net 2]]></y:Label.Text>
					</y:Label>
				</x:List>
			</data>
		</edge>
		<edge id="e18" source="n0" target="n19" sourceport="p18" targetport="p0">
			<data key="d6">
				<x:List>
					<y:Label PreferredSize="29,14" LayoutParameter="{y:GraphMLReference 5}">
						<y:Label.Text><![CDATA[Net 2]]></y:Label.Text>
					</y:Label>
				</x:List>
			</data>
		</edge>
		<edge id="e19" source="n0" target="n20" sourceport="p19" targetport="p0">
			<data key="d6">
				<x:List>
					<y:Label PreferredSize="29,14" LayoutParameter="{y:GraphMLReference 5}">
						<y:Label.Text><![CDATA[Net 2]]></y:Label.Text>
					</y:Label>
				</x:List>
			</data>
		</edge>
		<edge id="e20" source="n0" target="n21" sourceport="p20" targetport="p0">
			<data key="d6">
				<x:List>
					<y:Label PreferredSize="29,14" LayoutParameter="{y:GraphMLReference 5}">
						<y:Label.Text><![CDATA[Net 2]]></y:Label.Text>
					</y:Label>
				</x:List>
			</data>
		</edge>
		<edge id="e21" source="n0" target="n22" sourceport="p21" targetport="p0">
			<data key="d6">
				<x:List>
					<y:Label PreferredSize="29,14" LayoutParameter="{y:GraphMLReference 5}">
						<y:Label.Text><![CDATA[Net 2]]></y:Label.Text>
					</y:Label>
				</x:List>
			</data>
		</edge>
	</graph>
</graphml>
