<?xml version="1.0" encoding="UTF-8" standalone="no"?>
<!-- ////////////////////////////////////////////////////////////////////////
     // @license
     // This demo file is part of yFiles for HTML 2.1.0.6.
     // Copyright (c) 2000-2019 by yWorks GmbH, Vor dem Kreuzberg 28,
     // 72070 Tuebingen, Germany. All rights reserved.
     //
     // yFiles demo files exhibit yFiles for HTML functionalities. Any redistribution
     // of demo files in source code or binary form, with or without
     // modification, is not permitted.
     //
     // Owners of a valid software license for a yFiles for HTML version that this
     // demo is shipped with are allowed to use the demo source code as basis
     // for their own yFiles for HTML powered applications. Use of such programs is
     // governed by the rights and conditions as set out in the yFiles for HTML
     // license agreement.
     //
     // THIS SOFTWARE IS PROVIDED ''AS IS'' AND ANY EXPRESS OR IMPLIED
     // WARRANTIES, INCLUDING, BUT NOT LIMITED TO, THE IMPLIED WARRANTIES OF
     // MERCHANTABILITY AND FITNESS FOR A PARTICULAR PURPOSE ARE DISCLAIMED. IN
     // NO EVENT SHALL yWorks BE LIABLE FOR ANY DIRECT, INDIRECT, INCIDENTAL,
     // SPECIAL, EXEMPLARY, OR CONSEQUENTIAL DAMAGES (INCLUDING, BUT NOT LIMITED
     // TO, PROCUREMENT OF SUBSTITUTE GOODS OR SERVICES; LOSS OF USE, DATA, OR
     // PROFITS; OR BUSINESS INTERRUPTION) HOWEVER CAUSED AND ON ANY THEORY OF
     // LIABILITY, WHETHER IN CONTRACT, STRICT LIABILITY, OR TORT (INCLUDING
     // NEGLIGENCE OR OTHERWISE) ARISING IN ANY WAY OUT OF THE USE OF THIS
     // SOFTWARE, EVEN IF ADVISED OF THE POSSIBILITY OF SUCH DAMAGE.
     // 
     ////////////////////////////////////////////////////////////////////////-->

<graphml xsi:schemaLocation="http://graphml.graphdrawing.org/xmlns http://www.yworks.com/xml/schema/graphml.html/2.0/ygraphml.xsd " xmlns="http://graphml.graphdrawing.org/xmlns" xmlns:y="http://www.yworks.com/xml/yfiles-common/3.0" xmlns:x="http://www.yworks.com/xml/yfiles-common/markup/3.0" xmlns:yjs="http://www.yworks.com/xml/yfiles-for-html/2.0/xaml" xmlns:x0="http://www.yworks.com/yFilesHTML/demos/FlatDemoStyle/1.0" xmlns:xsi="http://www.w3.org/2001/XMLSchema-instance">
	<key id="d0" for="node" attr.name="NodeLabels" y:attr.uri="http://www.yworks.com/xml/yfiles-common/2.0/NodeLabels"/>
	<key id="d1" for="node" attr.name="NodeGeometry" y:attr.uri="http://www.yworks.com/xml/yfiles-common/2.0/NodeGeometry"/>
	<key id="d2" for="all" attr.name="UserTags" y:attr.uri="http://www.yworks.com/xml/yfiles-common/2.0/UserTags"/>
	<key id="d3" for="node" attr.name="NodeStyle" y:attr.uri="http://www.yworks.com/xml/yfiles-common/2.0/NodeStyle"/>
	<key id="d4" for="edge" attr.name="EdgeLabels" y:attr.uri="http://www.yworks.com/xml/yfiles-common/2.0/EdgeLabels"/>
	<key id="d5" for="edge" attr.name="EdgeGeometry" y:attr.uri="http://www.yworks.com/xml/yfiles-common/2.0/EdgeGeometry"/>
	<key id="d6" for="edge" attr.name="EdgeStyle" y:attr.uri="http://www.yworks.com/xml/yfiles-common/2.0/EdgeStyle"/>
	<key id="d7" for="port" attr.name="PortLabels" y:attr.uri="http://www.yworks.com/xml/yfiles-common/2.0/PortLabels"/>
	<key id="d8" for="port" attr.name="PortLocationParameter" y:attr.uri="http://www.yworks.com/xml/yfiles-common/2.0/PortLocationParameter">
		<default>
			<x:Static Member="y:FreeNodePortLocationModel.NodeCenterAnchored"/>
		</default>
	</key>
	<key id="d9" for="port" attr.name="PortStyle" y:attr.uri="http://www.yworks.com/xml/yfiles-common/2.0/PortStyle">
		<default>
			<x:Static Member="y:VoidPortStyle.Instance"/>
		</default>
	</key>
	<key id="d10" attr.name="SharedData" y:attr.uri="http://www.yworks.com/xml/yfiles-common/2.0/SharedData"/>
	<data key="d10">
		<y:SharedData>
			<y:RatioAnchoredLabelModelParameter x:Key="1" LayoutRatio="0.5,0.5" LabelRatio="0.5,0.5"/>
		</y:SharedData>
	</data>
	<graph id="G" edgedefault="directed">
		<node id="n0">
			<data key="d1">
				<y:RectD X="415" Y="250" Width="40" Height="40"/>
			</data>
			<data key="d3">
				<yjs:ShapeNodeStyle fill="#FFFF8C00">
					<yjs:ShapeNodeStyle.stroke>
						<yjs:Stroke fill="#FFFFFFFF" miterLimit="1.45"/>
					</yjs:ShapeNodeStyle.stroke>
				</yjs:ShapeNodeStyle>
			</data>
			<port name="p0">
				<data key="d8">
					<y:FreeNodePortLocationModelParameter Ratio="0.875,0"/>
				</data>
			</port>
			<port name="p1">
				<data key="d8">
					<y:FreeNodePortLocationModelParameter Ratio="0,0.5"/>
				</data>
			</port>
			<port name="p2">
				<data key="d8">
					<y:FreeNodePortLocationModelParameter Ratio="0.5,1"/>
				</data>
			</port>
			<port name="p3">
				<data key="d8">
					<y:FreeNodePortLocationModelParameter Ratio="0.5,0"/>
				</data>
			</port>
			<port name="p4">
				<data key="d8">
					<y:FreeNodePortLocationModelParameter Ratio="0.125,0"/>
				</data>
			</port>
			<port name="p5">
				<data key="d8">
					<y:FreeNodePortLocationModelParameter Ratio="1,0.5"/>
				</data>
			</port>
		</node>
		<node id="n1">
			<data key="d1">
				<y:RectD X="415" Y="250" Width="40" Height="40"/>
			</data>
			<data key="d3">
				<yjs:ShapeNodeStyle fill="#FFFF8C00">
					<yjs:ShapeNodeStyle.stroke>
						<yjs:Stroke fill="#FFFFFFFF" miterLimit="1.45"/>
					</yjs:ShapeNodeStyle.stroke>
				</yjs:ShapeNodeStyle>
			</data>
			<port name="p0">
				<data key="d8">
					<y:FreeNodePortLocationModelParameter Ratio="1,0.5"/>
				</data>
			</port>
			<port name="p1">
				<data key="d8">
					<y:FreeNodePortLocationModelParameter Ratio="0.125,0"/>
				</data>
			</port>
			<port name="p2">
				<data key="d8">
					<y:FreeNodePortLocationModelParameter Ratio="1,0.5"/>
				</data>
			</port>
			<port name="p3">
				<data key="d8">
					<y:FreeNodePortLocationModelParameter Ratio="0.5,0"/>
				</data>
			</port>
			<port name="p4">
				<data key="d8">
					<y:FreeNodePortLocationModelParameter Ratio="0.5,1"/>
				</data>
			</port>
			<port name="p5">
				<data key="d8">
					<y:FreeNodePortLocationModelParameter Ratio="0,0.5"/>
				</data>
			</port>
		</node>
		<node id="n2">
			<data key="d0">
				<x:List>
					<y:Label LayoutParameter="{y:GraphMLReference 1}" PreferredSize="7.332568059905846,14">
						<y:Label.Text>T</y:Label.Text>
						<y:Label.Style>
							<yjs:DefaultLabelStyle horizontalTextAlignment="CENTER" autoFlip="false" textFill="#FF000000">
								<yjs:DefaultLabelStyle.font>
									<yjs:Font fontSize="12"/>
								</yjs:DefaultLabelStyle.font>
							</yjs:DefaultLabelStyle>
						</y:Label.Style>
					</y:Label>
				</x:List>
			</data>
			<data key="d1">
				<y:RectD X="415" Y="250" Width="40" Height="40"/>
			</data>
			<data key="d3">
				<yjs:ShapeNodeStyle fill="#FF32CD32">
					<yjs:ShapeNodeStyle.stroke>
						<yjs:Stroke fill="#FFFFFFFF" miterLimit="1.45"/>
					</yjs:ShapeNodeStyle.stroke>
				</yjs:ShapeNodeStyle>
			</data>
			<port name="p0">
				<data key="d8">
					<y:FreeNodePortLocationModelParameter Ratio="0,0.5"/>
				</data>
			</port>
			<port name="p1">
				<data key="d8">
					<y:FreeNodePortLocationModelParameter Ratio="1,0.5"/>
				</data>
			</port>
			<port name="p2">
				<data key="d8">
					<y:FreeNodePortLocationModelParameter Ratio="1,0.5"/>
				</data>
			</port>
			<port name="p3">
				<data key="d8">
					<y:FreeNodePortLocationModelParameter Ratio="1,0.5"/>
				</data>
			</port>
		</node>
		<node id="n3">
			<data key="d1">
				<y:RectD X="395" Y="230" Width="80" Height="80"/>
			</data>
			<data key="d3">
				<yjs:ShapeNodeStyle fill="#FFFF8C00">
					<yjs:ShapeNodeStyle.stroke>
						<yjs:Stroke fill="#FFFFFFFF" miterLimit="1.45"/>
					</yjs:ShapeNodeStyle.stroke>
				</yjs:ShapeNodeStyle>
			</data>
			<port name="p0">
				<data key="d8">
					<y:FreeNodePortLocationModelParameter Ratio="1,0.5"/>
				</data>
			</port>
			<port name="p1">
				<data key="d8">
					<y:FreeNodePortLocationModelParameter Ratio="0,0.5"/>
				</data>
			</port>
			<port name="p2">
				<data key="d8">
					<y:FreeNodePortLocationModelParameter Ratio="0.5,0"/>
				</data>
			</port>
		</node>
		<node id="n4">
			<data key="d0">
				<x:List>
					<y:Label LayoutParameter="{y:GraphMLReference 1}" PreferredSize="7.332568059905846,14">
						<y:Label.Text>T</y:Label.Text>
						<y:Label.Style>
							<yjs:DefaultLabelStyle horizontalTextAlignment="CENTER" autoFlip="false" textFill="#FF000000">
								<yjs:DefaultLabelStyle.font>
									<yjs:Font fontSize="12"/>
								</yjs:DefaultLabelStyle.font>
							</yjs:DefaultLabelStyle>
						</y:Label.Style>
					</y:Label>
				</x:List>
			</data>
			<data key="d1">
				<y:RectD X="415" Y="250" Width="40" Height="40"/>
			</data>
			<data key="d3">
				<yjs:ShapeNodeStyle fill="#FF32CD32">
					<yjs:ShapeNodeStyle.stroke>
						<yjs:Stroke fill="#FFFFFFFF" miterLimit="1.45"/>
					</yjs:ShapeNodeStyle.stroke>
				</yjs:ShapeNodeStyle>
			</data>
			<port name="p0">
				<data key="d8">
					<y:FreeNodePortLocationModelParameter Ratio="0,0.5"/>
				</data>
			</port>
		</node>
		<node id="n5">
			<data key="d0">
				<x:List>
					<y:Label LayoutParameter="{y:GraphMLReference 1}" PreferredSize="7.332568059905846,14">
						<y:Label.Text>T</y:Label.Text>
						<y:Label.Style>
							<yjs:DefaultLabelStyle horizontalTextAlignment="CENTER" autoFlip="false" textFill="#FF000000">
								<yjs:DefaultLabelStyle.font>
									<yjs:Font fontSize="12"/>
								</yjs:DefaultLabelStyle.font>
							</yjs:DefaultLabelStyle>
						</y:Label.Style>
					</y:Label>
				</x:List>
			</data>
			<data key="d1">
				<y:RectD X="415" Y="250" Width="40" Height="40"/>
			</data>
			<data key="d3">
				<yjs:ShapeNodeStyle fill="#FF32CD32">
					<yjs:ShapeNodeStyle.stroke>
						<yjs:Stroke fill="#FFFFFFFF" miterLimit="1.45"/>
					</yjs:ShapeNodeStyle.stroke>
				</yjs:ShapeNodeStyle>
			</data>
			<port name="p0">
				<data key="d8">
					<y:FreeNodePortLocationModelParameter Ratio="0,0.5"/>
				</data>
			</port>
			<port name="p1">
				<data key="d8">
					<y:FreeNodePortLocationModelParameter Ratio="1,0.5"/>
				</data>
			</port>
			<port name="p2">
				<data key="d8">
					<y:FreeNodePortLocationModelParameter Ratio="1,0.5"/>
				</data>
			</port>
			<port name="p3">
				<data key="d8">
					<y:FreeNodePortLocationModelParameter Ratio="1,0.5"/>
				</data>
			</port>
			<port name="p4">
				<data key="d8">
					<y:FreeNodePortLocationModelParameter Ratio="1,0.5"/>
				</data>
			</port>
			<port name="p5">
				<data key="d8">
					<y:FreeNodePortLocationModelParameter Ratio="1,0.5"/>
				</data>
			</port>
		</node>
		<node id="n6">
			<data key="d0">
				<x:List>
					<y:Label LayoutParameter="{y:GraphMLReference 1}" PreferredSize="7.332568059905846,14">
						<y:Label.Text>T</y:Label.Text>
						<y:Label.Style>
							<yjs:DefaultLabelStyle horizontalTextAlignment="CENTER" autoFlip="false" textFill="#FF000000">
								<yjs:DefaultLabelStyle.font>
									<yjs:Font fontSize="12"/>
								</yjs:DefaultLabelStyle.font>
							</yjs:DefaultLabelStyle>
						</y:Label.Style>
					</y:Label>
				</x:List>
			</data>
			<data key="d1">
				<y:RectD X="415" Y="250" Width="40" Height="40"/>
			</data>
			<data key="d3">
				<yjs:ShapeNodeStyle fill="#FF32CD32">
					<yjs:ShapeNodeStyle.stroke>
						<yjs:Stroke fill="#FFFFFFFF" miterLimit="1.45"/>
					</yjs:ShapeNodeStyle.stroke>
				</yjs:ShapeNodeStyle>
			</data>
			<port name="p0">
				<data key="d8">
					<y:FreeNodePortLocationModelParameter Ratio="0,0.5"/>
				</data>
			</port>
		</node>
		<node id="n7">
			<data key="d0">
				<x:List>
					<y:Label LayoutParameter="{y:GraphMLReference 1}" PreferredSize="7.332568059905846,14">
						<y:Label.Text>T</y:Label.Text>
						<y:Label.Style>
							<yjs:DefaultLabelStyle horizontalTextAlignment="CENTER" autoFlip="false" textFill="#FF000000">
								<yjs:DefaultLabelStyle.font>
									<yjs:Font fontSize="12"/>
								</yjs:DefaultLabelStyle.font>
							</yjs:DefaultLabelStyle>
						</y:Label.Style>
					</y:Label>
				</x:List>
			</data>
			<data key="d1">
				<y:RectD X="415" Y="250" Width="40" Height="40"/>
			</data>
			<data key="d3">
				<yjs:ShapeNodeStyle fill="#FF32CD32">
					<yjs:ShapeNodeStyle.stroke>
						<yjs:Stroke fill="#FFFFFFFF" miterLimit="1.45"/>
					</yjs:ShapeNodeStyle.stroke>
				</yjs:ShapeNodeStyle>
			</data>
			<port name="p0">
				<data key="d8">
					<y:FreeNodePortLocationModelParameter Ratio="0,0.5"/>
				</data>
			</port>
		</node>
		<node id="n8">
			<data key="d0">
				<x:List>
					<y:Label LayoutParameter="{y:GraphMLReference 1}" PreferredSize="7.332568059905846,14">
						<y:Label.Text>T</y:Label.Text>
						<y:Label.Style>
							<yjs:DefaultLabelStyle horizontalTextAlignment="CENTER" autoFlip="false" textFill="#FF000000">
								<yjs:DefaultLabelStyle.font>
									<yjs:Font fontSize="12"/>
								</yjs:DefaultLabelStyle.font>
							</yjs:DefaultLabelStyle>
						</y:Label.Style>
					</y:Label>
				</x:List>
			</data>
			<data key="d1">
				<y:RectD X="415" Y="250" Width="40" Height="40"/>
			</data>
			<data key="d3">
				<yjs:ShapeNodeStyle fill="#FF32CD32">
					<yjs:ShapeNodeStyle.stroke>
						<yjs:Stroke fill="#FFFFFFFF" miterLimit="1.45"/>
					</yjs:ShapeNodeStyle.stroke>
				</yjs:ShapeNodeStyle>
			</data>
			<port name="p0">
				<data key="d8">
					<y:FreeNodePortLocationModelParameter Ratio="0,0.5"/>
				</data>
			</port>
		</node>
		<node id="n9">
			<data key="d0">
				<x:List>
					<y:Label LayoutParameter="{y:GraphMLReference 1}" PreferredSize="7.332568059905846,14">
						<y:Label.Text>T</y:Label.Text>
						<y:Label.Style>
							<yjs:DefaultLabelStyle horizontalTextAlignment="CENTER" autoFlip="false" textFill="#FF000000">
								<yjs:DefaultLabelStyle.font>
									<yjs:Font fontSize="12"/>
								</yjs:DefaultLabelStyle.font>
							</yjs:DefaultLabelStyle>
						</y:Label.Style>
					</y:Label>
				</x:List>
			</data>
			<data key="d1">
				<y:RectD X="415" Y="250" Width="40" Height="40"/>
			</data>
			<data key="d3">
				<yjs:ShapeNodeStyle fill="#FF32CD32">
					<yjs:ShapeNodeStyle.stroke>
						<yjs:Stroke fill="#FFFFFFFF" miterLimit="1.45"/>
					</yjs:ShapeNodeStyle.stroke>
				</yjs:ShapeNodeStyle>
			</data>
			<port name="p0">
				<data key="d8">
					<y:FreeNodePortLocationModelParameter Ratio="0,0.5"/>
				</data>
			</port>
		</node>
		<node id="n10">
			<data key="d1">
				<y:RectD X="415" Y="250" Width="40" Height="40"/>
			</data>
			<data key="d3">
				<yjs:ShapeNodeStyle fill="#FFFF8C00">
					<yjs:ShapeNodeStyle.stroke>
						<yjs:Stroke fill="#FFFFFFFF" miterLimit="1.45"/>
					</yjs:ShapeNodeStyle.stroke>
				</yjs:ShapeNodeStyle>
			</data>
			<port name="p0">
				<data key="d8">
					<y:FreeNodePortLocationModelParameter Ratio="1,0.5"/>
				</data>
			</port>
			<port name="p1">
				<data key="d8">
					<y:FreeNodePortLocationModelParameter Ratio="0.5,1"/>
				</data>
			</port>
		</node>
		<node id="n11">
			<data key="d1">
				<y:RectD X="395" Y="230" Width="80" Height="80"/>
			</data>
			<data key="d3">
				<yjs:ShapeNodeStyle fill="#FFFF8C00">
					<yjs:ShapeNodeStyle.stroke>
						<yjs:Stroke fill="#FFFFFFFF" miterLimit="1.45"/>
					</yjs:ShapeNodeStyle.stroke>
				</yjs:ShapeNodeStyle>
			</data>
			<port name="p0">
				<data key="d8">
					<y:FreeNodePortLocationModelParameter Ratio="0,0.5"/>
				</data>
			</port>
			<port name="p1">
				<data key="d8">
					<y:FreeNodePortLocationModelParameter Ratio="1,0.5"/>
				</data>
			</port>
			<port name="p2">
				<data key="d8">
					<y:FreeNodePortLocationModelParameter Ratio="0.5,1"/>
				</data>
			</port>
		</node>
		<node id="n12">
			<data key="d0">
				<x:List>
					<y:Label LayoutParameter="{y:GraphMLReference 1}" PreferredSize="7.332568059905846,14">
						<y:Label.Text>T</y:Label.Text>
						<y:Label.Style>
							<yjs:DefaultLabelStyle horizontalTextAlignment="CENTER" autoFlip="false" textFill="#FF000000">
								<yjs:DefaultLabelStyle.font>
									<yjs:Font fontSize="12"/>
								</yjs:DefaultLabelStyle.font>
							</yjs:DefaultLabelStyle>
						</y:Label.Style>
					</y:Label>
				</x:List>
			</data>
			<data key="d1">
				<y:RectD X="415" Y="250" Width="40" Height="40"/>
			</data>
			<data key="d3">
				<yjs:ShapeNodeStyle fill="#FF32CD32">
					<yjs:ShapeNodeStyle.stroke>
						<yjs:Stroke fill="#FFFFFFFF" miterLimit="1.45"/>
					</yjs:ShapeNodeStyle.stroke>
				</yjs:ShapeNodeStyle>
			</data>
			<port name="p0">
				<data key="d8">
					<y:FreeNodePortLocationModelParameter Ratio="0,0.5"/>
				</data>
			</port>
		</node>
		<node id="n13">
			<data key="d0">
				<x:List>
					<y:Label LayoutParameter="{y:GraphMLReference 1}" PreferredSize="7.332568059905846,14">
						<y:Label.Text>T</y:Label.Text>
						<y:Label.Style>
							<yjs:DefaultLabelStyle horizontalTextAlignment="CENTER" autoFlip="false" textFill="#FF000000">
								<yjs:DefaultLabelStyle.font>
									<yjs:Font fontSize="12"/>
								</yjs:DefaultLabelStyle.font>
							</yjs:DefaultLabelStyle>
						</y:Label.Style>
					</y:Label>
				</x:List>
			</data>
			<data key="d1">
				<y:RectD X="415" Y="250" Width="40" Height="40"/>
			</data>
			<data key="d3">
				<yjs:ShapeNodeStyle fill="#FF32CD32">
					<yjs:ShapeNodeStyle.stroke>
						<yjs:Stroke fill="#FFFFFFFF" miterLimit="1.45"/>
					</yjs:ShapeNodeStyle.stroke>
				</yjs:ShapeNodeStyle>
			</data>
			<port name="p0">
				<data key="d8">
					<y:FreeNodePortLocationModelParameter Ratio="0,0.5"/>
				</data>
			</port>
		</node>
		<node id="n14">
			<data key="d0">
				<x:List>
					<y:Label LayoutParameter="{y:GraphMLReference 1}" PreferredSize="7.332568059905846,14">
						<y:Label.Text>T</y:Label.Text>
						<y:Label.Style>
							<yjs:DefaultLabelStyle horizontalTextAlignment="CENTER" autoFlip="false" textFill="#FF000000">
								<yjs:DefaultLabelStyle.font>
									<yjs:Font fontSize="12"/>
								</yjs:DefaultLabelStyle.font>
							</yjs:DefaultLabelStyle>
						</y:Label.Style>
					</y:Label>
				</x:List>
			</data>
			<data key="d1">
				<y:RectD X="415" Y="250" Width="40" Height="40"/>
			</data>
			<data key="d3">
				<yjs:ShapeNodeStyle fill="#FF32CD32">
					<yjs:ShapeNodeStyle.stroke>
						<yjs:Stroke fill="#FFFFFFFF" miterLimit="1.45"/>
					</yjs:ShapeNodeStyle.stroke>
				</yjs:ShapeNodeStyle>
			</data>
			<port name="p0">
				<data key="d8">
					<y:FreeNodePortLocationModelParameter Ratio="0,0.5"/>
				</data>
			</port>
		</node>
		<node id="n15">
			<data key="d0">
				<x:List>
					<y:Label LayoutParameter="{y:GraphMLReference 1}" PreferredSize="14.670997485167332,14">
						<y:Label.Text>Cy</y:Label.Text>
						<y:Label.Style>
							<yjs:DefaultLabelStyle horizontalTextAlignment="CENTER" autoFlip="false" textFill="#FF000000">
								<yjs:DefaultLabelStyle.font>
									<yjs:Font fontSize="12"/>
								</yjs:DefaultLabelStyle.font>
							</yjs:DefaultLabelStyle>
						</y:Label.Style>
					</y:Label>
				</x:List>
			</data>
			<data key="d1">
				<y:RectD X="415" Y="250" Width="40" Height="40"/>
			</data>
			<data key="d3">
				<yjs:ShapeNodeStyle fill="#FFBA55D3">
					<yjs:ShapeNodeStyle.stroke>
						<yjs:Stroke fill="#FFFFFFFF" miterLimit="1.45"/>
					</yjs:ShapeNodeStyle.stroke>
				</yjs:ShapeNodeStyle>
			</data>
			<port name="p0">
				<data key="d8">
					<y:FreeNodePortLocationModelParameter Ratio="1,0.5"/>
				</data>
			</port>
			<port name="p1">
				<data key="d8">
					<y:FreeNodePortLocationModelParameter Ratio="0.5,0"/>
				</data>
			</port>
			<port name="p2">
				<data key="d8">
					<y:FreeNodePortLocationModelParameter Ratio="0.5,1"/>
				</data>
			</port>
		</node>
		<node id="n16">
			<data key="d0">
				<x:List>
					<y:Label LayoutParameter="{y:GraphMLReference 1}" PreferredSize="14.670997485167332,14">
						<y:Label.Text>Cy</y:Label.Text>
						<y:Label.Style>
							<yjs:DefaultLabelStyle horizontalTextAlignment="CENTER" autoFlip="false" textFill="#FF000000">
								<yjs:DefaultLabelStyle.font>
									<yjs:Font fontSize="12"/>
								</yjs:DefaultLabelStyle.font>
							</yjs:DefaultLabelStyle>
						</y:Label.Style>
					</y:Label>
				</x:List>
			</data>
			<data key="d1">
				<y:RectD X="415" Y="250" Width="40" Height="40"/>
			</data>
			<data key="d3">
				<yjs:ShapeNodeStyle fill="#FFBA55D3">
					<yjs:ShapeNodeStyle.stroke>
						<yjs:Stroke fill="#FFFFFFFF" miterLimit="1.45"/>
					</yjs:ShapeNodeStyle.stroke>
				</yjs:ShapeNodeStyle>
			</data>
			<port name="p0">
				<data key="d8">
					<y:FreeNodePortLocationModelParameter Ratio="0.5,1"/>
				</data>
			</port>
			<port name="p1">
				<data key="d8">
					<y:FreeNodePortLocationModelParameter Ratio="0.5,0"/>
				</data>
			</port>
		</node>
		<node id="n17">
			<data key="d0">
				<x:List>
					<y:Label LayoutParameter="{y:GraphMLReference 1}" PreferredSize="14.670997485167332,14">
						<y:Label.Text>Cy</y:Label.Text>
						<y:Label.Style>
							<yjs:DefaultLabelStyle horizontalTextAlignment="CENTER" autoFlip="false" textFill="#FF000000">
								<yjs:DefaultLabelStyle.font>
									<yjs:Font fontSize="12"/>
								</yjs:DefaultLabelStyle.font>
							</yjs:DefaultLabelStyle>
						</y:Label.Style>
					</y:Label>
				</x:List>
			</data>
			<data key="d1">
				<y:RectD X="415" Y="250" Width="40" Height="40"/>
			</data>
			<data key="d3">
				<yjs:ShapeNodeStyle fill="#FFBA55D3">
					<yjs:ShapeNodeStyle.stroke>
						<yjs:Stroke fill="#FFFFFFFF" miterLimit="1.45"/>
					</yjs:ShapeNodeStyle.stroke>
				</yjs:ShapeNodeStyle>
			</data>
			<port name="p0">
				<data key="d8">
					<y:FreeNodePortLocationModelParameter Ratio="1,0.5"/>
				</data>
			</port>
			<port name="p1">
				<data key="d8">
					<y:FreeNodePortLocationModelParameter Ratio="0,0.5"/>
				</data>
			</port>
		</node>
		<node id="n18">
			<data key="d0">
				<x:List>
					<y:Label LayoutParameter="{y:GraphMLReference 1}" PreferredSize="14.670997485167332,14">
						<y:Label.Text>Cy</y:Label.Text>
						<y:Label.Style>
							<yjs:DefaultLabelStyle horizontalTextAlignment="CENTER" autoFlip="false" textFill="#FF000000">
								<yjs:DefaultLabelStyle.font>
									<yjs:Font fontSize="12"/>
								</yjs:DefaultLabelStyle.font>
							</yjs:DefaultLabelStyle>
						</y:Label.Style>
					</y:Label>
				</x:List>
			</data>
			<data key="d1">
				<y:RectD X="415" Y="250" Width="40" Height="40"/>
			</data>
			<data key="d3">
				<yjs:ShapeNodeStyle fill="#FFBA55D3">
					<yjs:ShapeNodeStyle.stroke>
						<yjs:Stroke fill="#FFFFFFFF" miterLimit="1.45"/>
					</yjs:ShapeNodeStyle.stroke>
				</yjs:ShapeNodeStyle>
			</data>
			<port name="p0">
				<data key="d8">
					<y:FreeNodePortLocationModelParameter Ratio="1,0.5"/>
				</data>
			</port>
			<port name="p1">
				<data key="d8">
					<y:FreeNodePortLocationModelParameter Ratio="0,0.5"/>
				</data>
			</port>
		</node>
		<node id="n19">
			<data key="d0">
				<x:List>
					<y:Label LayoutParameter="{y:GraphMLReference 1}" PreferredSize="14.670997485167332,14">
						<y:Label.Text>Cy</y:Label.Text>
						<y:Label.Style>
							<yjs:DefaultLabelStyle horizontalTextAlignment="CENTER" autoFlip="false" textFill="#FF000000">
								<yjs:DefaultLabelStyle.font>
									<yjs:Font fontSize="12"/>
								</yjs:DefaultLabelStyle.font>
							</yjs:DefaultLabelStyle>
						</y:Label.Style>
					</y:Label>
				</x:List>
			</data>
			<data key="d1">
				<y:RectD X="415" Y="250" Width="40" Height="40"/>
			</data>
			<data key="d3">
				<yjs:ShapeNodeStyle fill="#FFBA55D3">
					<yjs:ShapeNodeStyle.stroke>
						<yjs:Stroke fill="#FFFFFFFF" miterLimit="1.45"/>
					</yjs:ShapeNodeStyle.stroke>
				</yjs:ShapeNodeStyle>
			</data>
			<port name="p0">
				<data key="d8">
					<y:FreeNodePortLocationModelParameter Ratio="0.5,0"/>
				</data>
			</port>
			<port name="p1">
				<data key="d8">
					<y:FreeNodePortLocationModelParameter Ratio="0.5,1"/>
				</data>
			</port>
		</node>
		<node id="n20">
			<data key="d0">
				<x:List>
					<y:Label LayoutParameter="{y:GraphMLReference 1}" PreferredSize="14.670997485167332,14">
						<y:Label.Text>Cy</y:Label.Text>
						<y:Label.Style>
							<yjs:DefaultLabelStyle horizontalTextAlignment="CENTER" autoFlip="false" textFill="#FF000000">
								<yjs:DefaultLabelStyle.font>
									<yjs:Font fontSize="12"/>
								</yjs:DefaultLabelStyle.font>
							</yjs:DefaultLabelStyle>
						</y:Label.Style>
					</y:Label>
				</x:List>
			</data>
			<data key="d1">
				<y:RectD X="415" Y="250" Width="40" Height="40"/>
			</data>
			<data key="d3">
				<yjs:ShapeNodeStyle fill="#FFBA55D3">
					<yjs:ShapeNodeStyle.stroke>
						<yjs:Stroke fill="#FFFFFFFF" miterLimit="1.45"/>
					</yjs:ShapeNodeStyle.stroke>
				</yjs:ShapeNodeStyle>
			</data>
			<port name="p0">
				<data key="d8">
					<y:FreeNodePortLocationModelParameter Ratio="0.5,0"/>
				</data>
			</port>
			<port name="p1">
				<data key="d8">
					<y:FreeNodePortLocationModelParameter Ratio="0.5,1"/>
				</data>
			</port>
		</node>
		<node id="n21">
			<data key="d0">
				<x:List>
					<y:Label LayoutParameter="{y:GraphMLReference 1}" PreferredSize="14.670997485167332,14">
						<y:Label.Text>Cy</y:Label.Text>
						<y:Label.Style>
							<yjs:DefaultLabelStyle horizontalTextAlignment="CENTER" autoFlip="false" textFill="#FF000000">
								<yjs:DefaultLabelStyle.font>
									<yjs:Font fontSize="12"/>
								</yjs:DefaultLabelStyle.font>
							</yjs:DefaultLabelStyle>
						</y:Label.Style>
					</y:Label>
				</x:List>
			</data>
			<data key="d1">
				<y:RectD X="415" Y="250" Width="40" Height="40"/>
			</data>
			<data key="d3">
				<yjs:ShapeNodeStyle fill="#FFBA55D3">
					<yjs:ShapeNodeStyle.stroke>
						<yjs:Stroke fill="#FFFFFFFF" miterLimit="1.45"/>
					</yjs:ShapeNodeStyle.stroke>
				</yjs:ShapeNodeStyle>
			</data>
			<port name="p0">
				<data key="d8">
					<y:FreeNodePortLocationModelParameter Ratio="0,0.5"/>
				</data>
			</port>
			<port name="p1">
				<data key="d8">
					<y:FreeNodePortLocationModelParameter Ratio="1,0.5"/>
				</data>
			</port>
		</node>
		<node id="n22">
			<data key="d0">
				<x:List>
					<y:Label LayoutParameter="{y:GraphMLReference 1}" PreferredSize="15.34505450106595,14">
						<y:Label.Text>Ch</y:Label.Text>
						<y:Label.Style>
							<yjs:DefaultLabelStyle horizontalTextAlignment="CENTER" autoFlip="false" textFill="#FF000000">
								<yjs:DefaultLabelStyle.font>
									<yjs:Font fontSize="12"/>
								</yjs:DefaultLabelStyle.font>
							</yjs:DefaultLabelStyle>
						</y:Label.Style>
					</y:Label>
				</x:List>
			</data>
			<data key="d1">
				<y:RectD X="401" Y="251.5" Width="68" Height="37"/>
			</data>
			<data key="d3">
				<yjs:ShapeNodeStyle fill="#FF00BFFF">
					<yjs:ShapeNodeStyle.stroke>
						<yjs:Stroke fill="#FFFFFFFF" miterLimit="1.45"/>
					</yjs:ShapeNodeStyle.stroke>
				</yjs:ShapeNodeStyle>
			</data>
			<port name="p0">
				<data key="d8">
					<y:FreeNodePortLocationModelParameter Ratio="0.5,0"/>
				</data>
			</port>
			<port name="p1">
				<data key="d8">
					<y:FreeNodePortLocationModelParameter Ratio="0.5,1"/>
				</data>
			</port>
		</node>
		<node id="n23">
			<data key="d0">
				<x:List>
					<y:Label LayoutParameter="{y:GraphMLReference 1}" PreferredSize="15.34505450106595,14">
						<y:Label.Text>Ch</y:Label.Text>
						<y:Label.Style>
							<yjs:DefaultLabelStyle horizontalTextAlignment="CENTER" autoFlip="false" textFill="#FF000000">
								<yjs:DefaultLabelStyle.font>
									<yjs:Font fontSize="12"/>
								</yjs:DefaultLabelStyle.font>
							</yjs:DefaultLabelStyle>
						</y:Label.Style>
					</y:Label>
				</x:List>
			</data>
			<data key="d1">
				<y:RectD X="401" Y="251.5" Width="68" Height="37"/>
			</data>
			<data key="d3">
				<yjs:ShapeNodeStyle fill="#FF00BFFF">
					<yjs:ShapeNodeStyle.stroke>
						<yjs:Stroke fill="#FFFFFFFF" miterLimit="1.45"/>
					</yjs:ShapeNodeStyle.stroke>
				</yjs:ShapeNodeStyle>
			</data>
			<port name="p0">
				<data key="d8">
					<y:FreeNodePortLocationModelParameter Ratio="0.5,0"/>
				</data>
			</port>
			<port name="p1">
				<data key="d8">
					<y:FreeNodePortLocationModelParameter Ratio="0.5,1"/>
				</data>
			</port>
		</node>
		<node id="n24">
			<data key="d0">
				<x:List>
					<y:Label LayoutParameter="{y:GraphMLReference 1}" PreferredSize="15.34505450106595,14">
						<y:Label.Text>Ch</y:Label.Text>
						<y:Label.Style>
							<yjs:DefaultLabelStyle horizontalTextAlignment="CENTER" autoFlip="false" textFill="#FF000000">
								<yjs:DefaultLabelStyle.font>
									<yjs:Font fontSize="12"/>
								</yjs:DefaultLabelStyle.font>
							</yjs:DefaultLabelStyle>
						</y:Label.Style>
					</y:Label>
				</x:List>
			</data>
			<data key="d1">
				<y:RectD X="401" Y="251.5" Width="68" Height="37"/>
			</data>
			<data key="d3">
				<yjs:ShapeNodeStyle fill="#FF00BFFF">
					<yjs:ShapeNodeStyle.stroke>
						<yjs:Stroke fill="#FFFFFFFF" miterLimit="1.45"/>
					</yjs:ShapeNodeStyle.stroke>
				</yjs:ShapeNodeStyle>
			</data>
			<port name="p0">
				<data key="d8">
					<y:FreeNodePortLocationModelParameter Ratio="0.5,0"/>
				</data>
			</port>
			<port name="p1">
				<data key="d8">
					<y:FreeNodePortLocationModelParameter Ratio="0,0.5"/>
				</data>
			</port>
		</node>
		<node id="n25">
			<data key="d0">
				<x:List>
					<y:Label LayoutParameter="{y:GraphMLReference 1}" PreferredSize="15.34505450106595,14">
						<y:Label.Text>Ch</y:Label.Text>
						<y:Label.Style>
							<yjs:DefaultLabelStyle horizontalTextAlignment="CENTER" autoFlip="false" textFill="#FF000000">
								<yjs:DefaultLabelStyle.font>
									<yjs:Font fontSize="12"/>
								</yjs:DefaultLabelStyle.font>
							</yjs:DefaultLabelStyle>
						</y:Label.Style>
					</y:Label>
				</x:List>
			</data>
			<data key="d1">
				<y:RectD X="401" Y="250" Width="68" Height="37"/>
			</data>
			<data key="d3">
				<yjs:ShapeNodeStyle fill="#FF00BFFF">
					<yjs:ShapeNodeStyle.stroke>
						<yjs:Stroke fill="#FFFFFFFF" miterLimit="1.45"/>
					</yjs:ShapeNodeStyle.stroke>
				</yjs:ShapeNodeStyle>
			</data>
			<port name="p0">
				<data key="d8">
					<y:FreeNodePortLocationModelParameter Ratio="1,0.5"/>
				</data>
			</port>
			<port name="p1">
				<data key="d8">
					<y:FreeNodePortLocationModelParameter Ratio="0.5,0"/>
				</data>
			</port>
		</node>
		<node id="n26">
			<data key="d0">
				<x:List>
					<y:Label LayoutParameter="{y:GraphMLReference 1}" PreferredSize="15.34505450106595,14">
						<y:Label.Text>Ch</y:Label.Text>
						<y:Label.Style>
							<yjs:DefaultLabelStyle horizontalTextAlignment="CENTER" autoFlip="false" textFill="#FF000000">
								<yjs:DefaultLabelStyle.font>
									<yjs:Font fontSize="12"/>
								</yjs:DefaultLabelStyle.font>
							</yjs:DefaultLabelStyle>
						</y:Label.Style>
					</y:Label>
				</x:List>
			</data>
			<data key="d1">
				<y:RectD X="401" Y="251.5" Width="68" Height="37"/>
			</data>
			<data key="d3">
				<yjs:ShapeNodeStyle fill="#FF00BFFF">
					<yjs:ShapeNodeStyle.stroke>
						<yjs:Stroke fill="#FFFFFFFF" miterLimit="1.45"/>
					</yjs:ShapeNodeStyle.stroke>
				</yjs:ShapeNodeStyle>
			</data>
			<port name="p0">
				<data key="d8">
					<y:FreeNodePortLocationModelParameter Ratio="0.5,1"/>
				</data>
			</port>
			<port name="p1">
				<data key="d8">
					<y:FreeNodePortLocationModelParameter Ratio="0.5,0"/>
				</data>
			</port>
		</node>
		<node id="n27">
			<data key="d0">
				<x:List>
					<y:Label LayoutParameter="{y:GraphMLReference 1}" PreferredSize="15.34505450106595,14">
						<y:Label.Text>Ch</y:Label.Text>
						<y:Label.Style>
							<yjs:DefaultLabelStyle horizontalTextAlignment="CENTER" autoFlip="false" textFill="#FF000000">
								<yjs:DefaultLabelStyle.font>
									<yjs:Font fontSize="12"/>
								</yjs:DefaultLabelStyle.font>
							</yjs:DefaultLabelStyle>
						</y:Label.Style>
					</y:Label>
				</x:List>
			</data>
			<data key="d1">
				<y:RectD X="401" Y="251.5" Width="68" Height="37"/>
			</data>
			<data key="d3">
				<yjs:ShapeNodeStyle fill="#FF00BFFF">
					<yjs:ShapeNodeStyle.stroke>
						<yjs:Stroke fill="#FFFFFFFF" miterLimit="1.45"/>
					</yjs:ShapeNodeStyle.stroke>
				</yjs:ShapeNodeStyle>
			</data>
			<port name="p0">
				<data key="d8">
					<y:FreeNodePortLocationModelParameter Ratio="0.5,1"/>
				</data>
			</port>
			<port name="p1">
				<data key="d8">
					<y:FreeNodePortLocationModelParameter Ratio="0,0.5"/>
				</data>
			</port>
		</node>
		<node id="n28">
			<data key="d0">
				<x:List>
					<y:Label LayoutParameter="{y:GraphMLReference 1}" PreferredSize="15.34505450106595,14">
						<y:Label.Text>Ch</y:Label.Text>
						<y:Label.Style>
							<yjs:DefaultLabelStyle horizontalTextAlignment="CENTER" autoFlip="false" textFill="#FF000000">
								<yjs:DefaultLabelStyle.font>
									<yjs:Font fontSize="12"/>
								</yjs:DefaultLabelStyle.font>
							</yjs:DefaultLabelStyle>
						</y:Label.Style>
					</y:Label>
				</x:List>
			</data>
			<data key="d1">
				<y:RectD X="401" Y="251.5" Width="68" Height="37"/>
			</data>
			<data key="d3">
				<yjs:ShapeNodeStyle fill="#FF00BFFF">
					<yjs:ShapeNodeStyle.stroke>
						<yjs:Stroke fill="#FFFFFFFF" miterLimit="1.45"/>
					</yjs:ShapeNodeStyle.stroke>
				</yjs:ShapeNodeStyle>
			</data>
			<port name="p0">
				<data key="d8">
					<y:FreeNodePortLocationModelParameter Ratio="1,0.5"/>
				</data>
			</port>
			<port name="p1">
				<data key="d8">
					<y:FreeNodePortLocationModelParameter Ratio="0.5,1"/>
				</data>
			</port>
		</node>
		<node id="n29">
			<data key="d0">
				<x:List>
					<y:Label LayoutParameter="{y:GraphMLReference 1}" PreferredSize="15.34505450106595,14">
						<y:Label.Text>Ch</y:Label.Text>
						<y:Label.Style>
							<yjs:DefaultLabelStyle horizontalTextAlignment="CENTER" autoFlip="false" textFill="#FF000000">
								<yjs:DefaultLabelStyle.font>
									<yjs:Font fontSize="12"/>
								</yjs:DefaultLabelStyle.font>
							</yjs:DefaultLabelStyle>
						</y:Label.Style>
					</y:Label>
				</x:List>
			</data>
			<data key="d1">
				<y:RectD X="401" Y="251.5" Width="68" Height="37"/>
			</data>
			<data key="d3">
				<yjs:ShapeNodeStyle fill="#FF00BFFF">
					<yjs:ShapeNodeStyle.stroke>
						<yjs:Stroke fill="#FFFFFFFF" miterLimit="1.45"/>
					</yjs:ShapeNodeStyle.stroke>
				</yjs:ShapeNodeStyle>
			</data>
			<port name="p0">
				<data key="d8">
					<y:FreeNodePortLocationModelParameter Ratio="0.5,0"/>
				</data>
			</port>
			<port name="p1">
				<data key="d8">
					<y:FreeNodePortLocationModelParameter Ratio="0.5,1"/>
				</data>
			</port>
		</node>
		<node id="n30">
			<data key="d0">
				<x:List>
					<y:Label LayoutParameter="{y:GraphMLReference 1}" PreferredSize="15.34505450106595,14">
						<y:Label.Text>Ch</y:Label.Text>
						<y:Label.Style>
							<yjs:DefaultLabelStyle horizontalTextAlignment="CENTER" autoFlip="false" textFill="#FF000000">
								<yjs:DefaultLabelStyle.font>
									<yjs:Font fontSize="12"/>
								</yjs:DefaultLabelStyle.font>
							</yjs:DefaultLabelStyle>
						</y:Label.Style>
					</y:Label>
				</x:List>
			</data>
			<data key="d1">
				<y:RectD X="401" Y="251.5" Width="68" Height="37"/>
			</data>
			<data key="d3">
				<yjs:ShapeNodeStyle fill="#FF00BFFF">
					<yjs:ShapeNodeStyle.stroke>
						<yjs:Stroke fill="#FFFFFFFF" miterLimit="1.45"/>
					</yjs:ShapeNodeStyle.stroke>
				</yjs:ShapeNodeStyle>
			</data>
			<port name="p0">
				<data key="d8">
					<y:FreeNodePortLocationModelParameter Ratio="0.5,0"/>
				</data>
			</port>
		</node>
		<node id="n31">
			<data key="d0">
				<x:List>
					<y:Label LayoutParameter="{y:GraphMLReference 1}" PreferredSize="14.670997485167332,14">
						<y:Label.Text>Cy</y:Label.Text>
						<y:Label.Style>
							<yjs:DefaultLabelStyle horizontalTextAlignment="CENTER" autoFlip="false" textFill="#FF000000">
								<yjs:DefaultLabelStyle.font>
									<yjs:Font fontSize="12"/>
								</yjs:DefaultLabelStyle.font>
							</yjs:DefaultLabelStyle>
						</y:Label.Style>
					</y:Label>
				</x:List>
			</data>
			<data key="d1">
				<y:RectD X="415" Y="250" Width="40" Height="40"/>
			</data>
			<data key="d3">
				<yjs:ShapeNodeStyle fill="#FFBA55D3">
					<yjs:ShapeNodeStyle.stroke>
						<yjs:Stroke fill="#FFFFFFFF" miterLimit="1.45"/>
					</yjs:ShapeNodeStyle.stroke>
				</yjs:ShapeNodeStyle>
			</data>
			<port name="p0">
				<data key="d8">
					<y:FreeNodePortLocationModelParameter Ratio="0,0.5"/>
				</data>
			</port>
			<port name="p1">
				<data key="d8">
					<y:FreeNodePortLocationModelParameter Ratio="1,0.5"/>
				</data>
			</port>
		</node>
		<node id="n32">
			<data key="d1">
				<y:RectD X="395" Y="230" Width="80" Height="80"/>
			</data>
			<data key="d3">
				<yjs:ShapeNodeStyle fill="#FFFF8C00">
					<yjs:ShapeNodeStyle.stroke>
						<yjs:Stroke fill="#FFFFFFFF" miterLimit="1.45"/>
					</yjs:ShapeNodeStyle.stroke>
				</yjs:ShapeNodeStyle>
			</data>
			<port name="p0">
				<data key="d8">
					<y:FreeNodePortLocationModelParameter Ratio="0.5,1"/>
				</data>
			</port>
			<port name="p1">
				<data key="d8">
					<y:FreeNodePortLocationModelParameter Ratio="0,0.5"/>
				</data>
			</port>
			<port name="p2">
				<data key="d8">
					<y:FreeNodePortLocationModelParameter Ratio="1,0.5"/>
				</data>
			</port>
		</node>
		<node id="n33">
			<data key="d1">
				<y:RectD X="415" Y="250" Width="40" Height="40"/>
			</data>
			<data key="d3">
				<yjs:ShapeNodeStyle fill="#FFFF8C00">
					<yjs:ShapeNodeStyle.stroke>
						<yjs:Stroke fill="#FFFFFFFF" miterLimit="1.45"/>
					</yjs:ShapeNodeStyle.stroke>
				</yjs:ShapeNodeStyle>
			</data>
			<port name="p0">
				<data key="d8">
					<y:FreeNodePortLocationModelParameter Ratio="0,0.5"/>
				</data>
			</port>
			<port name="p1">
				<data key="d8">
					<y:FreeNodePortLocationModelParameter Ratio="1,0.5"/>
				</data>
			</port>
			<port name="p2">
				<data key="d8">
					<y:FreeNodePortLocationModelParameter Ratio="0.5,1"/>
				</data>
			</port>
		</node>
		<node id="n34">
			<data key="d1">
				<y:RectD X="395" Y="230" Width="80" Height="80"/>
			</data>
			<data key="d3">
				<yjs:ShapeNodeStyle fill="#FFFF8C00">
					<yjs:ShapeNodeStyle.stroke>
						<yjs:Stroke fill="#FFFFFFFF" miterLimit="1.45"/>
					</yjs:ShapeNodeStyle.stroke>
				</yjs:ShapeNodeStyle>
			</data>
			<port name="p0">
				<data key="d8">
					<y:FreeNodePortLocationModelParameter Ratio="0,0.5"/>
				</data>
			</port>
			<port name="p1">
				<data key="d8">
					<y:FreeNodePortLocationModelParameter Ratio="1,0.5"/>
				</data>
			</port>
			<port name="p2">
				<data key="d8">
					<y:FreeNodePortLocationModelParameter Ratio="0,0.3125"/>
				</data>
			</port>
			<port name="p3">
				<data key="d8">
					<y:FreeNodePortLocationModelParameter Ratio="0.5,0"/>
				</data>
			</port>
		</node>
		<edge id="e0" source="n2" target="n1" sourceport="p0" targetport="p0">
			<data key="d6">
				<x0:DemoEdgeStyle showTargetArrows="false"/>
			</data>
		</edge>
		<edge id="e1" source="n3" target="n1" sourceport="p0" targetport="p1">
			<data key="d6">
				<x0:DemoEdgeStyle showTargetArrows="false"/>
			</data>
		</edge>
		<edge id="e2" source="n2" target="n4" sourceport="p1" targetport="p0">
			<data key="d6">
				<x0:DemoEdgeStyle showTargetArrows="false"/>
			</data>
		</edge>
		<edge id="e3" source="n2" target="n7" sourceport="p2" targetport="p0">
			<data key="d6">
				<x0:DemoEdgeStyle showTargetArrows="false"/>
			</data>
		</edge>
		<edge id="e4" source="n2" target="n6" sourceport="p3" targetport="p0">
			<data key="d6">
				<x0:DemoEdgeStyle showTargetArrows="false"/>
			</data>
		</edge>
		<edge id="e5" source="n1" target="n5" sourceport="p2" targetport="p0">
			<data key="d6">
				<x0:DemoEdgeStyle showTargetArrows="false"/>
			</data>
		</edge>
		<edge id="e6" source="n5" target="n8" sourceport="p1" targetport="p0">
			<data key="d6">
				<x0:DemoEdgeStyle showTargetArrows="false"/>
			</data>
		</edge>
		<edge id="e7" source="n5" target="n9" sourceport="p2" targetport="p0">
			<data key="d6">
				<x0:DemoEdgeStyle showTargetArrows="false"/>
			</data>
		</edge>
		<edge id="e8" source="n0" target="n3" sourceport="p0" targetport="p1">
			<data key="d6">
				<x0:DemoEdgeStyle showTargetArrows="false"/>
			</data>
		</edge>
		<edge id="e9" source="n10" target="n11" sourceport="p0" targetport="p0">
			<data key="d6">
				<x0:DemoEdgeStyle showTargetArrows="false"/>
			</data>
		</edge>
		<edge id="e10" source="n11" target="n1" sourceport="p1" targetport="p3">
			<data key="d6">
				<x0:DemoEdgeStyle showTargetArrows="false"/>
			</data>
		</edge>
		<edge id="e11" source="n11" target="n3" sourceport="p2" targetport="p2">
			<data key="d6">
				<x0:DemoEdgeStyle showTargetArrows="false"/>
			</data>
		</edge>
		<edge id="e12" source="n5" target="n12" sourceport="p3" targetport="p0">
			<data key="d6">
				<x0:DemoEdgeStyle showTargetArrows="false"/>
			</data>
		</edge>
		<edge id="e13" source="n5" target="n13" sourceport="p4" targetport="p0">
			<data key="d6">
				<x0:DemoEdgeStyle showTargetArrows="false"/>
			</data>
		</edge>
		<edge id="e14" source="n5" target="n14" sourceport="p5" targetport="p0">
			<data key="d6">
				<x0:DemoEdgeStyle showTargetArrows="false"/>
			</data>
		</edge>
		<edge id="e15" source="n0" target="n15" sourceport="p1" targetport="p0">
			<data key="d6">
				<x0:DemoEdgeStyle showTargetArrows="false"/>
			</data>
		</edge>
		<edge id="e16" source="n15" target="n16" sourceport="p1" targetport="p0">
			<data key="d6">
				<x0:DemoEdgeStyle showTargetArrows="false"/>
			</data>
		</edge>
		<edge id="e17" source="n16" target="n17" sourceport="p1" targetport="p0">
			<data key="d6">
				<x0:DemoEdgeStyle showTargetArrows="false"/>
			</data>
		</edge>
		<edge id="e18" source="n17" target="n18" sourceport="p1" targetport="p0">
			<data key="d6">
				<x0:DemoEdgeStyle showTargetArrows="false"/>
			</data>
		</edge>
		<edge id="e19" source="n18" target="n19" sourceport="p1" targetport="p0">
			<data key="d6">
				<x0:DemoEdgeStyle showTargetArrows="false"/>
			</data>
		</edge>
		<edge id="e20" source="n19" target="n20" sourceport="p1" targetport="p0">
			<data key="d6">
				<x0:DemoEdgeStyle showTargetArrows="false"/>
			</data>
		</edge>
		<edge id="e21" source="n20" target="n21" sourceport="p1" targetport="p0">
			<data key="d6">
				<x0:DemoEdgeStyle showTargetArrows="false"/>
			</data>
		</edge>
		<edge id="e22" source="n0" target="n22" sourceport="p2" targetport="p0">
			<data key="d6">
				<x0:DemoEdgeStyle showTargetArrows="false"/>
			</data>
		</edge>
		<edge id="e23" source="n22" target="n23" sourceport="p1" targetport="p0">
			<data key="d6">
				<x0:DemoEdgeStyle showTargetArrows="false"/>
			</data>
		</edge>
		<edge id="e24" source="n23" target="n24" sourceport="p1" targetport="p0">
			<data key="d6">
				<x0:DemoEdgeStyle showTargetArrows="false"/>
			</data>
		</edge>
		<edge id="e25" source="n24" target="n25" sourceport="p1" targetport="p0">
			<data key="d6">
				<x0:DemoEdgeStyle showTargetArrows="false"/>
			</data>
		</edge>
		<edge id="e26" source="n25" target="n26" sourceport="p1" targetport="p0">
			<data key="d6">
				<x0:DemoEdgeStyle showTargetArrows="false"/>
			</data>
		</edge>
		<edge id="e27" source="n26" target="n27" sourceport="p1" targetport="p0">
			<data key="d6">
				<x0:DemoEdgeStyle showTargetArrows="false"/>
			</data>
		</edge>
		<edge id="e28" source="n27" target="n28" sourceport="p1" targetport="p0">
			<data key="d6">
				<x0:DemoEdgeStyle showTargetArrows="false"/>
			</data>
		</edge>
		<edge id="e29" source="n28" target="n29" sourceport="p1" targetport="p0">
			<data key="d6">
				<x0:DemoEdgeStyle showTargetArrows="false"/>
			</data>
		</edge>
		<edge id="e30" source="n29" target="n30" sourceport="p1" targetport="p0">
			<data key="d6">
				<x0:DemoEdgeStyle showTargetArrows="false"/>
			</data>
		</edge>
		<edge id="e31" source="n21" target="n31" sourceport="p1" targetport="p0">
			<data key="d6">
				<x0:DemoEdgeStyle showTargetArrows="false"/>
			</data>
		</edge>
		<edge id="e32" source="n31" target="n15" sourceport="p1" targetport="p2">
			<data key="d6">
				<x0:DemoEdgeStyle showTargetArrows="false"/>
			</data>
		</edge>
		<edge id="e33" source="n10" target="n0" sourceport="p1" targetport="p3">
			<data key="d6">
				<x0:DemoEdgeStyle showTargetArrows="false"/>
			</data>
		</edge>
		<edge id="e34" source="n0" target="n34" sourceport="p4" targetport="p0">
			<data key="d6">
				<x0:DemoEdgeStyle showTargetArrows="false"/>
			</data>
		</edge>
		<edge id="e35" source="n34" target="n1" sourceport="p1" targetport="p4">
			<data key="d6">
				<x0:DemoEdgeStyle showTargetArrows="false"/>
			</data>
		</edge>
		<edge id="e36" source="n34" target="n32" sourceport="p2" targetport="p0">
			<data key="d6">
				<x0:DemoEdgeStyle showTargetArrows="false"/>
			</data>
		</edge>
		<edge id="e37" source="n32" target="n0" sourceport="p1" targetport="p5">
			<data key="d6">
				<x0:DemoEdgeStyle showTargetArrows="false"/>
			</data>
		</edge>
		<edge id="e38" source="n32" target="n33" sourceport="p2" targetport="p0">
			<data key="d6">
				<x0:DemoEdgeStyle showTargetArrows="false"/>
			</data>
		</edge>
		<edge id="e39" source="n33" target="n1" sourceport="p1" targetport="p5">
			<data key="d6">
				<x0:DemoEdgeStyle showTargetArrows="false"/>
			</data>
		</edge>
		<edge id="e40" source="n33" target="n34" sourceport="p2" targetport="p3">
			<data key="d6">
				<x0:DemoEdgeStyle showTargetArrows="false"/>
			</data>
		</edge>
	</graph>
</graphml>
